<?xml version="1.0" encoding="UTF-8"?>
<svg xmlns="http://www.w3.org/2000/svg" xmlns:xlink="http://www.w3.org/1999/xlink" width="235.207pt" height="272.426pt" viewBox="0 0 235.207 272.426" version="1.2">
<defs>
<g>
<symbol overflow="visible" id="glyph0-0">
<path style="stroke:none;" d=""/>
</symbol>
<symbol overflow="visible" id="glyph0-1">
<path style="stroke:none;" d="M 3.46875 -3.84375 L 2.1875 -4.15625 C 1.578125 -4.3125 1.1875 -4.84375 1.1875 -5.421875 C 1.1875 -6.109375 1.71875 -6.71875 2.5 -6.71875 C 4.15625 -6.71875 4.375 -5.09375 4.4375 -4.640625 C 4.4375 -4.578125 4.4375 -4.53125 4.546875 -4.53125 C 4.6875 -4.53125 4.6875 -4.578125 4.6875 -4.765625 L 4.6875 -6.75 C 4.6875 -6.921875 4.6875 -7 4.578125 -7 C 4.5 -7 4.5 -6.984375 4.421875 -6.859375 L 4.078125 -6.296875 C 3.78125 -6.59375 3.375 -7 2.484375 -7 C 1.390625 -7 0.5625 -6.125 0.5625 -5.0625 C 0.5625 -4.25 1.078125 -3.515625 1.859375 -3.25 C 1.96875 -3.21875 2.46875 -3.09375 3.171875 -2.921875 C 3.4375 -2.859375 3.734375 -2.78125 4.015625 -2.421875 C 4.21875 -2.15625 4.3125 -1.828125 4.3125 -1.515625 C 4.3125 -0.796875 3.8125 -0.09375 2.984375 -0.09375 C 2.703125 -0.09375 1.9375 -0.140625 1.421875 -0.625 C 0.84375 -1.15625 0.8125 -1.796875 0.796875 -2.15625 C 0.796875 -2.25 0.71875 -2.25 0.6875 -2.25 C 0.5625 -2.25 0.5625 -2.1875 0.5625 -2 L 0.5625 -0.015625 C 0.5625 0.15625 0.5625 0.21875 0.671875 0.21875 C 0.734375 0.21875 0.75 0.203125 0.8125 0.09375 C 0.8125 0.078125 0.84375 0.046875 1.171875 -0.46875 C 1.484375 -0.140625 2.109375 0.21875 3 0.21875 C 4.15625 0.21875 4.953125 -0.75 4.953125 -1.84375 C 4.953125 -2.84375 4.296875 -3.65625 3.46875 -3.84375 Z M 3.46875 -3.84375 "/>
</symbol>
<symbol overflow="visible" id="glyph0-2">
<path style="stroke:none;" d="M 1.71875 -3.96875 L 3.140625 -3.96875 L 3.140625 -4.28125 L 1.71875 -4.28125 L 1.71875 -6.109375 L 1.46875 -6.109375 C 1.453125 -5.28125 1.15625 -4.234375 0.1875 -4.1875 L 0.1875 -3.96875 L 1.03125 -3.96875 L 1.03125 -1.234375 C 1.03125 -0.015625 1.953125 0.109375 2.3125 0.109375 C 3.015625 0.109375 3.296875 -0.59375 3.296875 -1.234375 L 3.296875 -1.796875 L 3.046875 -1.796875 L 3.046875 -1.25 C 3.046875 -0.515625 2.75 -0.140625 2.375 -0.140625 C 1.71875 -0.140625 1.71875 -1.046875 1.71875 -1.203125 Z M 1.71875 -3.96875 "/>
</symbol>
<symbol overflow="visible" id="glyph0-3">
<path style="stroke:none;" d="M 3.296875 -0.75 C 3.34375 -0.359375 3.609375 0.0625 4.078125 0.0625 C 4.28125 0.0625 4.890625 -0.078125 4.890625 -0.890625 L 4.890625 -1.4375 L 4.640625 -1.4375 L 4.640625 -0.890625 C 4.640625 -0.3125 4.390625 -0.25 4.28125 -0.25 C 3.953125 -0.25 3.921875 -0.6875 3.921875 -0.75 L 3.921875 -2.734375 C 3.921875 -3.140625 3.921875 -3.53125 3.5625 -3.90625 C 3.171875 -4.28125 2.671875 -4.4375 2.203125 -4.4375 C 1.390625 -4.4375 0.703125 -3.984375 0.703125 -3.328125 C 0.703125 -3.03125 0.90625 -2.859375 1.15625 -2.859375 C 1.4375 -2.859375 1.625 -3.0625 1.625 -3.3125 C 1.625 -3.4375 1.5625 -3.765625 1.109375 -3.765625 C 1.375 -4.125 1.859375 -4.234375 2.1875 -4.234375 C 2.671875 -4.234375 3.234375 -3.84375 3.234375 -2.953125 L 3.234375 -2.59375 C 2.734375 -2.5625 2.03125 -2.53125 1.40625 -2.234375 C 0.671875 -1.890625 0.421875 -1.375 0.421875 -0.9375 C 0.421875 -0.140625 1.375 0.109375 2 0.109375 C 2.65625 0.109375 3.109375 -0.28125 3.296875 -0.75 Z M 3.234375 -2.375 L 3.234375 -1.390625 C 3.234375 -0.453125 2.515625 -0.109375 2.078125 -0.109375 C 1.59375 -0.109375 1.1875 -0.453125 1.1875 -0.953125 C 1.1875 -1.5 1.59375 -2.328125 3.234375 -2.375 Z M 3.234375 -2.375 "/>
</symbol>
<symbol overflow="visible" id="glyph0-4">
<path style="stroke:none;" d="M 1.65625 -3.296875 L 1.65625 -4.390625 L 0.28125 -4.28125 L 0.28125 -3.96875 C 0.96875 -3.96875 1.046875 -3.90625 1.046875 -3.40625 L 1.046875 -0.75 C 1.046875 -0.3125 0.9375 -0.3125 0.28125 -0.3125 L 0.28125 0 C 0.671875 -0.015625 1.125 -0.03125 1.40625 -0.03125 C 1.8125 -0.03125 2.265625 -0.03125 2.671875 0 L 2.671875 -0.3125 L 2.453125 -0.3125 C 1.71875 -0.3125 1.703125 -0.421875 1.703125 -0.78125 L 1.703125 -2.296875 C 1.703125 -3.28125 2.125 -4.171875 2.875 -4.171875 C 2.953125 -4.171875 2.96875 -4.171875 2.984375 -4.15625 C 2.953125 -4.140625 2.765625 -4.03125 2.765625 -3.765625 C 2.765625 -3.5 2.96875 -3.34375 3.1875 -3.34375 C 3.359375 -3.34375 3.609375 -3.46875 3.609375 -3.78125 C 3.609375 -4.09375 3.296875 -4.390625 2.875 -4.390625 C 2.15625 -4.390625 1.796875 -3.71875 1.65625 -3.296875 Z M 1.65625 -3.296875 "/>
</symbol>
<symbol overflow="visible" id="glyph0-5">
<path style="stroke:none;" d="M 2.390625 -6.5625 C 2.296875 -6.78125 2.265625 -6.78125 2.046875 -6.78125 L 0.359375 -6.78125 L 0.359375 -6.46875 L 0.609375 -6.46875 C 1.375 -6.46875 1.390625 -6.359375 1.390625 -6 L 1.390625 -1.046875 C 1.390625 -0.78125 1.390625 -0.3125 0.359375 -0.3125 L 0.359375 0 C 0.71875 -0.015625 1.203125 -0.03125 1.53125 -0.03125 C 1.859375 -0.03125 2.34375 -0.015625 2.6875 0 L 2.6875 -0.3125 C 1.671875 -0.3125 1.671875 -0.78125 1.671875 -1.046875 L 1.671875 -6.390625 L 4.0625 -0.21875 C 4.125 -0.09375 4.171875 0 4.265625 0 C 4.375 0 4.40625 -0.078125 4.4375 -0.1875 L 6.890625 -6.46875 L 6.890625 -0.78125 C 6.890625 -0.421875 6.875 -0.3125 6.109375 -0.3125 L 5.875 -0.3125 L 5.875 0 C 6.234375 -0.03125 6.921875 -0.03125 7.296875 -0.03125 C 7.6875 -0.03125 8.359375 -0.03125 8.71875 0 L 8.71875 -0.3125 L 8.484375 -0.3125 C 7.71875 -0.3125 7.703125 -0.421875 7.703125 -0.78125 L 7.703125 -6 C 7.703125 -6.359375 7.71875 -6.46875 8.484375 -6.46875 L 8.71875 -6.46875 L 8.71875 -6.78125 L 7.046875 -6.78125 C 6.78125 -6.78125 6.78125 -6.765625 6.71875 -6.59375 L 4.546875 -1 Z M 2.390625 -6.5625 "/>
</symbol>
<symbol overflow="visible" id="glyph0-6">
<path style="stroke:none;" d="M 2.0625 -1.921875 C 2.28125 -1.890625 3.09375 -1.71875 3.09375 -1.015625 C 3.09375 -0.5 2.75 -0.109375 1.96875 -0.109375 C 1.140625 -0.109375 0.78125 -0.671875 0.59375 -1.515625 C 0.5625 -1.640625 0.5625 -1.6875 0.453125 -1.6875 C 0.328125 -1.6875 0.328125 -1.625 0.328125 -1.4375 L 0.328125 -0.125 C 0.328125 0.046875 0.328125 0.109375 0.4375 0.109375 C 0.484375 0.109375 0.5 0.09375 0.6875 -0.09375 C 0.703125 -0.109375 0.703125 -0.125 0.890625 -0.3125 C 1.3125 0.09375 1.765625 0.109375 1.96875 0.109375 C 3.109375 0.109375 3.578125 -0.5625 3.578125 -1.265625 C 3.578125 -1.796875 3.28125 -2.09375 3.15625 -2.21875 C 2.828125 -2.53125 2.4375 -2.609375 2.03125 -2.6875 C 1.46875 -2.796875 0.796875 -2.921875 0.796875 -3.5 C 0.796875 -3.84375 1.0625 -4.25 1.921875 -4.25 C 3 -4.25 3.0625 -3.359375 3.078125 -3.0625 C 3.078125 -2.96875 3.171875 -2.96875 3.1875 -2.96875 C 3.328125 -2.96875 3.328125 -3.015625 3.328125 -3.203125 L 3.328125 -4.203125 C 3.328125 -4.375 3.328125 -4.4375 3.21875 -4.4375 C 3.171875 -4.4375 3.140625 -4.4375 3.015625 -4.328125 C 2.984375 -4.28125 2.890625 -4.203125 2.84375 -4.171875 C 2.46875 -4.4375 2.0625 -4.4375 1.921875 -4.4375 C 0.703125 -4.4375 0.328125 -3.78125 0.328125 -3.21875 C 0.328125 -2.875 0.484375 -2.59375 0.75 -2.375 C 1.078125 -2.125 1.34375 -2.0625 2.0625 -1.921875 Z M 2.0625 -1.921875 "/>
</symbol>
<symbol overflow="visible" id="glyph0-7">
<path style="stroke:none;" d="M 1.109375 -2.5 C 1.171875 -3.984375 2 -4.234375 2.34375 -4.234375 C 3.359375 -4.234375 3.46875 -2.890625 3.46875 -2.5 Z M 1.09375 -2.296875 L 3.875 -2.296875 C 4.09375 -2.296875 4.125 -2.296875 4.125 -2.5 C 4.125 -3.484375 3.578125 -4.4375 2.34375 -4.4375 C 1.1875 -4.4375 0.28125 -3.421875 0.28125 -2.1875 C 0.28125 -0.859375 1.3125 0.109375 2.453125 0.109375 C 3.671875 0.109375 4.125 -0.984375 4.125 -1.1875 C 4.125 -1.28125 4.03125 -1.296875 3.984375 -1.296875 C 3.90625 -1.296875 3.875 -1.234375 3.859375 -1.15625 C 3.515625 -0.140625 2.625 -0.140625 2.515625 -0.140625 C 2.03125 -0.140625 1.625 -0.4375 1.40625 -0.796875 C 1.09375 -1.28125 1.09375 -1.9375 1.09375 -2.296875 Z M 1.09375 -2.296875 "/>
</symbol>
<symbol overflow="visible" id="glyph0-8">
<path style="stroke:none;" d="M 2.203125 -3.625 L 2.203125 -6.078125 C 2.203125 -6.40625 2.21875 -6.46875 2.6875 -6.46875 L 3.921875 -6.46875 C 4.875 -6.46875 5.234375 -5.625 5.234375 -5.09375 C 5.234375 -4.46875 4.75 -3.625 3.640625 -3.625 Z M 4.546875 -3.546875 C 5.5 -3.734375 6.1875 -4.359375 6.1875 -5.09375 C 6.1875 -5.96875 5.28125 -6.78125 3.984375 -6.78125 L 0.359375 -6.78125 L 0.359375 -6.46875 L 0.59375 -6.46875 C 1.359375 -6.46875 1.375 -6.359375 1.375 -6 L 1.375 -0.78125 C 1.375 -0.421875 1.359375 -0.3125 0.59375 -0.3125 L 0.359375 -0.3125 L 0.359375 0 L 4.25 0 C 5.5625 0 6.453125 -0.890625 6.453125 -1.8125 C 6.453125 -2.671875 5.640625 -3.421875 4.546875 -3.546875 Z M 3.921875 -0.3125 L 2.6875 -0.3125 C 2.21875 -0.3125 2.203125 -0.375 2.203125 -0.703125 L 2.203125 -3.40625 L 4.0625 -3.40625 C 5.046875 -3.40625 5.46875 -2.484375 5.46875 -1.828125 C 5.46875 -1.125 4.953125 -0.3125 3.921875 -0.3125 Z M 3.921875 -0.3125 "/>
</symbol>
<symbol overflow="visible" id="glyph0-9">
<path style="stroke:none;" d="M 6.90625 -1.203125 C 6.875 -0.421875 6.234375 -0.09375 5.796875 -0.09375 C 5.265625 -0.09375 4.75 -0.59375 4.421875 -0.96875 C 4.875 -1.5 5.28125 -2.171875 5.734375 -2.953125 C 6.125 -3.609375 6.328125 -3.953125 7.21875 -3.96875 L 7.21875 -4.28125 C 6.84375 -4.25 6.3125 -4.25 6.25 -4.25 C 6.140625 -4.25 5.3125 -4.25 5.046875 -4.28125 L 5.046875 -3.96875 C 5.5 -3.96875 5.75 -3.78125 5.75 -3.53125 C 5.75 -3.4375 5.6875 -3.359375 5.6875 -3.328125 C 5.140625 -2.375 4.6875 -1.703125 4.265625 -1.171875 C 4.140625 -1.3125 3.0625 -2.671875 2.625 -3.8125 C 3.15625 -4.421875 3.828125 -5.171875 3.828125 -5.828125 C 3.828125 -6.28125 3.671875 -7.109375 2.96875 -7.109375 C 2.34375 -7.109375 1.625 -6.5625 1.625 -5.5 C 1.625 -5.09375 1.671875 -4.375 2.03125 -3.5 L 1.125 -2.53125 C 0.671875 -2.078125 0.421875 -1.8125 0.421875 -1.265625 C 0.421875 -0.40625 1.234375 0.21875 2.21875 0.21875 C 3.0625 0.21875 3.640625 -0.203125 4.015625 -0.53125 C 4.6875 0.0625 5.28125 0.21875 5.75 0.21875 C 6.515625 0.21875 7.140625 -0.34375 7.15625 -1.203125 Z M 2.546875 -4.0625 C 2.265625 -4.859375 2.25 -5.421875 2.25 -5.734375 C 2.25 -6.5625 2.640625 -6.890625 2.984375 -6.890625 C 3.578125 -6.890625 3.578125 -5.859375 3.578125 -5.828125 C 3.578125 -5.171875 2.78125 -4.3125 2.546875 -4.0625 Z M 2.109375 -3.265625 C 2.328125 -2.796875 2.484375 -2.5 2.90625 -1.890625 C 3.09375 -1.609375 3.453125 -1.09375 3.8125 -0.71875 C 3.1875 -0.15625 2.5625 -0.09375 2.296875 -0.09375 C 1.46875 -0.09375 1.234375 -1.046875 1.234375 -1.59375 C 1.234375 -2.390625 1.578125 -2.75 2.109375 -3.265625 Z M 2.109375 -3.265625 "/>
</symbol>
<symbol overflow="visible" id="glyph0-10">
<path style="stroke:none;" d="M 2.234375 -6 C 2.234375 -6.359375 2.265625 -6.46875 3.046875 -6.46875 L 3.296875 -6.46875 L 3.296875 -6.78125 C 2.953125 -6.75 2.171875 -6.75 1.796875 -6.75 C 1.40625 -6.75 0.625 -6.75 0.28125 -6.78125 L 0.28125 -6.46875 L 0.53125 -6.46875 C 1.3125 -6.46875 1.34375 -6.359375 1.34375 -6 L 1.34375 -0.78125 C 1.34375 -0.421875 1.3125 -0.3125 0.53125 -0.3125 L 0.28125 -0.3125 L 0.28125 0 C 0.625 -0.03125 1.40625 -0.03125 1.78125 -0.03125 C 2.171875 -0.03125 2.953125 -0.03125 3.296875 0 L 3.296875 -0.3125 L 3.046875 -0.3125 C 2.265625 -0.3125 2.234375 -0.421875 2.234375 -0.78125 Z M 2.234375 -6 "/>
</symbol>
<symbol overflow="visible" id="glyph0-11">
<path style="stroke:none;" d="M 1.09375 -3.40625 L 1.09375 -0.75 C 1.09375 -0.3125 0.984375 -0.3125 0.3125 -0.3125 L 0.3125 0 C 0.671875 -0.015625 1.171875 -0.03125 1.4375 -0.03125 C 1.703125 -0.03125 2.21875 -0.015625 2.546875 0 L 2.546875 -0.3125 C 1.890625 -0.3125 1.78125 -0.3125 1.78125 -0.75 L 1.78125 -2.578125 C 1.78125 -3.609375 2.484375 -4.171875 3.109375 -4.171875 C 3.734375 -4.171875 3.84375 -3.625 3.84375 -3.0625 L 3.84375 -0.75 C 3.84375 -0.3125 3.734375 -0.3125 3.078125 -0.3125 L 3.078125 0 C 3.421875 -0.015625 3.921875 -0.03125 4.203125 -0.03125 C 4.453125 -0.03125 4.96875 -0.015625 5.3125 0 L 5.3125 -0.3125 C 4.796875 -0.3125 4.546875 -0.3125 4.53125 -0.609375 L 4.53125 -2.5 C 4.53125 -3.359375 4.53125 -3.65625 4.234375 -4.015625 C 4.09375 -4.1875 3.765625 -4.390625 3.1875 -4.390625 C 2.453125 -4.390625 2 -3.953125 1.71875 -3.34375 L 1.71875 -4.390625 L 0.3125 -4.28125 L 0.3125 -3.96875 C 1.015625 -3.96875 1.09375 -3.90625 1.09375 -3.40625 Z M 1.09375 -3.40625 "/>
</symbol>
<symbol overflow="visible" id="glyph0-12">
<path style="stroke:none;" d="M 1.90625 -0.53125 C 1.90625 -0.8125 1.671875 -1.046875 1.375 -1.046875 C 1.09375 -1.046875 0.859375 -0.8125 0.859375 -0.53125 C 0.859375 -0.234375 1.09375 0 1.375 0 C 1.671875 0 1.90625 -0.234375 1.90625 -0.53125 Z M 1.90625 -0.53125 "/>
</symbol>
<symbol overflow="visible" id="glyph0-13">
<path style="stroke:none;" d="M 4.671875 -2.125 C 4.671875 -3.390625 3.6875 -4.4375 2.484375 -4.4375 C 1.234375 -4.4375 0.28125 -3.359375 0.28125 -2.125 C 0.28125 -0.84375 1.3125 0.109375 2.46875 0.109375 C 3.671875 0.109375 4.671875 -0.859375 4.671875 -2.125 Z M 2.484375 -0.140625 C 2.046875 -0.140625 1.625 -0.34375 1.34375 -0.796875 C 1.09375 -1.234375 1.09375 -1.84375 1.09375 -2.203125 C 1.09375 -2.59375 1.09375 -3.125 1.34375 -3.5625 C 1.609375 -4.015625 2.078125 -4.234375 2.46875 -4.234375 C 2.90625 -4.234375 3.328125 -4.015625 3.59375 -3.578125 C 3.84375 -3.15625 3.84375 -2.578125 3.84375 -2.203125 C 3.84375 -1.84375 3.84375 -1.3125 3.625 -0.875 C 3.40625 -0.421875 2.96875 -0.140625 2.484375 -0.140625 Z M 2.484375 -0.140625 "/>
</symbol>
<symbol overflow="visible" id="glyph0-14">
<path style="stroke:none;" d="M 1.75 -6.890625 L 0.328125 -6.78125 L 0.328125 -6.46875 C 1.015625 -6.46875 1.09375 -6.40625 1.09375 -5.90625 L 1.09375 -0.75 C 1.09375 -0.3125 0.984375 -0.3125 0.328125 -0.3125 L 0.328125 0 C 0.65625 -0.015625 1.1875 -0.03125 1.421875 -0.03125 C 1.671875 -0.03125 2.15625 -0.015625 2.53125 0 L 2.53125 -0.3125 C 1.859375 -0.3125 1.75 -0.3125 1.75 -0.75 Z M 1.75 -6.890625 "/>
</symbol>
<symbol overflow="visible" id="glyph0-15">
<path style="stroke:none;" d="M 3.875 -0.78125 L 3.875 0.109375 L 5.3125 0 L 5.3125 -0.3125 C 4.609375 -0.3125 4.53125 -0.375 4.53125 -0.859375 L 4.53125 -4.390625 L 3.078125 -4.28125 L 3.078125 -3.96875 C 3.765625 -3.96875 3.84375 -3.90625 3.84375 -3.40625 L 3.84375 -1.640625 C 3.84375 -0.78125 3.375 -0.109375 2.65625 -0.109375 C 1.8125 -0.109375 1.78125 -0.578125 1.78125 -1.09375 L 1.78125 -4.390625 L 0.3125 -4.28125 L 0.3125 -3.96875 C 1.09375 -3.96875 1.09375 -3.9375 1.09375 -3.0625 L 1.09375 -1.5625 C 1.09375 -0.796875 1.09375 0.109375 2.59375 0.109375 C 3.15625 0.109375 3.59375 -0.171875 3.875 -0.78125 Z M 3.875 -0.78125 "/>
</symbol>
<symbol overflow="visible" id="glyph0-16">
<path style="stroke:none;" d="M 2.734375 -1.859375 L 2.734375 -2.4375 L 0.109375 -2.4375 L 0.109375 -1.859375 Z M 2.734375 -1.859375 "/>
</symbol>
<symbol overflow="visible" id="glyph0-17">
<path style="stroke:none;" d="M 1.75 -4.390625 L 0.359375 -4.28125 L 0.359375 -3.96875 C 1.015625 -3.96875 1.09375 -3.90625 1.09375 -3.421875 L 1.09375 -0.75 C 1.09375 -0.3125 0.984375 -0.3125 0.328125 -0.3125 L 0.328125 0 C 0.640625 -0.015625 1.1875 -0.03125 1.421875 -0.03125 C 1.765625 -0.03125 2.109375 -0.015625 2.453125 0 L 2.453125 -0.3125 C 1.796875 -0.3125 1.75 -0.359375 1.75 -0.75 Z M 1.796875 -6.109375 C 1.796875 -6.421875 1.546875 -6.640625 1.265625 -6.640625 C 0.96875 -6.640625 0.75 -6.375 0.75 -6.109375 C 0.75 -5.84375 0.96875 -5.59375 1.265625 -5.59375 C 1.546875 -5.59375 1.796875 -5.796875 1.796875 -6.109375 Z M 1.796875 -6.109375 "/>
</symbol>
<symbol overflow="visible" id="glyph0-18">
<path style="stroke:none;" d="M 2.328125 -2.46875 C 2.328125 -3.71875 3.296875 -4.421875 3.640625 -4.6875 C 3.90625 -4.875 4.125 -5.234375 4.125 -5.65625 C 4.125 -6.234375 3.71875 -7 2.25 -7 C 1.171875 -7 0.5625 -6.3125 0.5625 -5.671875 C 0.5625 -5.34375 0.78125 -5.203125 1.015625 -5.203125 C 1.296875 -5.203125 1.46875 -5.390625 1.46875 -5.65625 C 1.46875 -6.109375 1.046875 -6.109375 0.90625 -6.109375 C 1.21875 -6.625 1.796875 -6.78125 2.21875 -6.78125 C 3.296875 -6.78125 3.296875 -6.109375 3.296875 -5.71875 C 3.296875 -5.125 3.140625 -4.953125 2.953125 -4.765625 C 2.296875 -4.0625 2.078125 -3.140625 2.078125 -2.546875 L 2.078125 -2.09375 C 2.078125 -1.921875 2.078125 -1.859375 2.203125 -1.859375 C 2.328125 -1.859375 2.328125 -1.9375 2.328125 -2.125 Z M 2.734375 -0.53125 C 2.734375 -0.8125 2.484375 -1.046875 2.203125 -1.046875 C 1.921875 -1.046875 1.671875 -0.8125 1.671875 -0.53125 C 1.671875 -0.234375 1.921875 0 2.203125 0 C 2.484375 0 2.734375 -0.234375 2.734375 -0.53125 Z M 2.734375 -0.53125 "/>
</symbol>
<symbol overflow="visible" id="glyph0-19">
<path style="stroke:none;" d="M 4.265625 -5.546875 L 4.265625 -5.859375 L 0.6875 -5.859375 L 0.6875 -5.546875 Z M 4.265625 -5.546875 "/>
</symbol>
<symbol overflow="visible" id="glyph0-20">
<path style="stroke:none;" d="M 3.953125 -6.90625 C 3.90625 -7.03125 3.875 -7.109375 3.71875 -7.109375 C 3.5625 -7.109375 3.53125 -7.046875 3.484375 -6.90625 L 1.421875 -0.96875 C 1.25 -0.46875 0.859375 -0.3125 0.3125 -0.3125 L 0.3125 0 C 0.546875 -0.015625 0.96875 -0.03125 1.328125 -0.03125 C 1.640625 -0.03125 2.15625 -0.015625 2.46875 0 L 2.46875 -0.3125 C 1.96875 -0.3125 1.71875 -0.5625 1.71875 -0.8125 C 1.71875 -0.84375 1.734375 -0.9375 1.75 -0.96875 L 2.203125 -2.265625 L 4.65625 -2.265625 L 5.171875 -0.75 C 5.1875 -0.703125 5.203125 -0.640625 5.203125 -0.609375 C 5.203125 -0.3125 4.65625 -0.3125 4.390625 -0.3125 L 4.390625 0 C 4.75 -0.03125 5.4375 -0.03125 5.8125 -0.03125 C 6.234375 -0.03125 6.703125 -0.015625 7.109375 0 L 7.109375 -0.3125 L 6.9375 -0.3125 C 6.34375 -0.3125 6.203125 -0.375 6.09375 -0.703125 Z M 3.421875 -5.796875 L 4.546875 -2.5625 L 2.3125 -2.5625 Z M 3.421875 -5.796875 "/>
</symbol>
<symbol overflow="visible" id="glyph0-21">
<path style="stroke:none;" d="M 3.765625 -0.546875 L 3.765625 0.109375 L 5.234375 0 L 5.234375 -0.3125 C 4.53125 -0.3125 4.453125 -0.375 4.453125 -0.859375 L 4.453125 -6.890625 L 3.03125 -6.78125 L 3.03125 -6.46875 C 3.71875 -6.46875 3.796875 -6.40625 3.796875 -5.90625 L 3.796875 -3.765625 C 3.515625 -4.125 3.078125 -4.390625 2.546875 -4.390625 C 1.375 -4.390625 0.34375 -3.40625 0.34375 -2.140625 C 0.34375 -0.875 1.3125 0.109375 2.4375 0.109375 C 3.078125 0.109375 3.515625 -0.234375 3.765625 -0.546875 Z M 3.765625 -3.203125 L 3.765625 -1.171875 C 3.765625 -0.984375 3.765625 -0.96875 3.65625 -0.796875 C 3.359375 -0.328125 2.921875 -0.109375 2.484375 -0.109375 C 2.046875 -0.109375 1.6875 -0.359375 1.453125 -0.75 C 1.1875 -1.15625 1.15625 -1.71875 1.15625 -2.125 C 1.15625 -2.484375 1.1875 -3.078125 1.46875 -3.53125 C 1.671875 -3.84375 2.046875 -4.171875 2.59375 -4.171875 C 2.9375 -4.171875 3.359375 -4.015625 3.65625 -3.578125 C 3.765625 -3.40625 3.765625 -3.390625 3.765625 -3.203125 Z M 3.765625 -3.203125 "/>
</symbol>
<symbol overflow="visible" id="glyph0-22">
<path style="stroke:none;" d="M 1.15625 -2.15625 C 1.15625 -3.78125 1.96875 -4.203125 2.5 -4.203125 C 2.59375 -4.203125 3.21875 -4.1875 3.5625 -3.828125 C 3.15625 -3.796875 3.09375 -3.5 3.09375 -3.375 C 3.09375 -3.109375 3.28125 -2.921875 3.546875 -2.921875 C 3.8125 -2.921875 4.015625 -3.078125 4.015625 -3.390625 C 4.015625 -4.0625 3.25 -4.4375 2.484375 -4.4375 C 1.25 -4.4375 0.34375 -3.375 0.34375 -2.140625 C 0.34375 -0.875 1.3125 0.109375 2.46875 0.109375 C 3.796875 0.109375 4.125 -1.078125 4.125 -1.1875 C 4.125 -1.28125 4.015625 -1.28125 3.984375 -1.28125 C 3.90625 -1.28125 3.875 -1.234375 3.859375 -1.1875 C 3.578125 -0.265625 2.921875 -0.140625 2.5625 -0.140625 C 2.03125 -0.140625 1.15625 -0.5625 1.15625 -2.15625 Z M 1.15625 -2.15625 "/>
</symbol>
<symbol overflow="visible" id="glyph0-23">
<path style="stroke:none;" d="M 4.125 -3.296875 C 4.21875 -3.53125 4.390625 -3.953125 5.046875 -3.96875 L 5.046875 -4.28125 C 4.8125 -4.25 4.53125 -4.25 4.296875 -4.25 C 4.0625 -4.25 3.609375 -4.265625 3.4375 -4.28125 L 3.4375 -3.96875 C 3.796875 -3.953125 3.90625 -3.734375 3.90625 -3.546875 C 3.90625 -3.453125 3.890625 -3.40625 3.84375 -3.296875 L 2.84375 -0.78125 L 1.71875 -3.546875 C 1.671875 -3.671875 1.671875 -3.6875 1.671875 -3.703125 C 1.671875 -3.96875 2.046875 -3.96875 2.234375 -3.96875 L 2.234375 -4.28125 C 1.9375 -4.265625 1.375 -4.25 1.15625 -4.25 C 0.890625 -4.25 0.484375 -4.25 0.1875 -4.28125 L 0.1875 -3.96875 C 0.8125 -3.96875 0.859375 -3.90625 0.984375 -3.609375 L 2.40625 -0.078125 C 2.46875 0.0625 2.484375 0.109375 2.625 0.109375 C 2.75 0.109375 2.78125 0.015625 2.828125 -0.078125 Z M 4.125 -3.296875 "/>
</symbol>
<symbol overflow="visible" id="glyph0-24">
<path style="stroke:none;" d="M 1.703125 -3.734375 L 1.703125 -6.890625 L 0.28125 -6.78125 L 0.28125 -6.46875 C 0.96875 -6.46875 1.046875 -6.40625 1.046875 -5.90625 L 1.046875 0 L 1.296875 0 C 1.3125 -0.015625 1.390625 -0.15625 1.65625 -0.609375 C 1.8125 -0.390625 2.21875 0.109375 2.953125 0.109375 C 4.140625 0.109375 5.171875 -0.859375 5.171875 -2.140625 C 5.171875 -3.40625 4.203125 -4.390625 3.0625 -4.390625 C 2.296875 -4.390625 1.859375 -3.921875 1.703125 -3.734375 Z M 1.734375 -1.125 L 1.734375 -3.171875 C 1.734375 -3.359375 1.734375 -3.375 1.84375 -3.53125 C 2.234375 -4.09375 2.78125 -4.171875 3.015625 -4.171875 C 3.46875 -4.171875 3.8125 -3.90625 4.0625 -3.53125 C 4.3125 -3.125 4.34375 -2.5625 4.34375 -2.15625 C 4.34375 -1.78125 4.328125 -1.1875 4.03125 -0.75 C 3.828125 -0.4375 3.453125 -0.109375 2.921875 -0.109375 C 2.46875 -0.109375 2.109375 -0.34375 1.875 -0.71875 C 1.734375 -0.921875 1.734375 -0.953125 1.734375 -1.125 Z M 1.734375 -1.125 "/>
</symbol>
<symbol overflow="visible" id="glyph0-25">
<path style="stroke:none;" d="M 1.703125 -3.734375 L 1.703125 -4.390625 L 0.28125 -4.28125 L 0.28125 -3.96875 C 0.984375 -3.96875 1.046875 -3.90625 1.046875 -3.46875 L 1.046875 1.171875 C 1.046875 1.625 0.9375 1.625 0.28125 1.625 L 0.28125 1.921875 C 0.609375 1.921875 1.125 1.890625 1.390625 1.890625 C 1.65625 1.890625 2.15625 1.921875 2.515625 1.921875 L 2.515625 1.625 C 1.84375 1.625 1.734375 1.625 1.734375 1.171875 L 1.734375 -0.578125 C 1.78125 -0.421875 2.203125 0.109375 2.953125 0.109375 C 4.140625 0.109375 5.171875 -0.859375 5.171875 -2.140625 C 5.171875 -3.40625 4.203125 -4.390625 3.09375 -4.390625 C 2.328125 -4.390625 1.90625 -3.953125 1.703125 -3.734375 Z M 1.734375 -1.125 L 1.734375 -3.34375 C 2.03125 -3.84375 2.515625 -4.140625 3.015625 -4.140625 C 3.734375 -4.140625 4.34375 -3.265625 4.34375 -2.140625 C 4.34375 -0.9375 3.65625 -0.109375 2.921875 -0.109375 C 2.515625 -0.109375 2.140625 -0.3125 1.875 -0.71875 C 1.734375 -0.921875 1.734375 -0.9375 1.734375 -1.125 Z M 1.734375 -1.125 "/>
</symbol>
<symbol overflow="visible" id="glyph0-26">
<path style="stroke:none;" d="M 3.28125 2.375 C 3.28125 2.34375 3.28125 2.328125 3.109375 2.15625 C 1.875 0.90625 1.5625 -0.96875 1.5625 -2.484375 C 1.5625 -4.203125 1.9375 -5.9375 3.15625 -7.171875 C 3.28125 -7.296875 3.28125 -7.3125 3.28125 -7.34375 C 3.28125 -7.40625 3.25 -7.4375 3.1875 -7.4375 C 3.078125 -7.4375 2.1875 -6.765625 1.609375 -5.5 C 1.09375 -4.421875 0.984375 -3.3125 0.984375 -2.484375 C 0.984375 -1.703125 1.09375 -0.5 1.640625 0.609375 C 2.234375 1.828125 3.078125 2.484375 3.1875 2.484375 C 3.25 2.484375 3.28125 2.453125 3.28125 2.375 Z M 3.28125 2.375 "/>
</symbol>
<symbol overflow="visible" id="glyph0-27">
<path style="stroke:none;" d="M 2.875 -2.484375 C 2.875 -3.25 2.765625 -4.453125 2.21875 -5.578125 C 1.625 -6.796875 0.765625 -7.4375 0.671875 -7.4375 C 0.609375 -7.4375 0.5625 -7.40625 0.5625 -7.34375 C 0.5625 -7.3125 0.5625 -7.296875 0.75 -7.109375 C 1.71875 -6.125 2.296875 -4.546875 2.296875 -2.484375 C 2.296875 -0.78125 1.921875 0.96875 0.6875 2.21875 C 0.5625 2.328125 0.5625 2.34375 0.5625 2.375 C 0.5625 2.4375 0.609375 2.484375 0.671875 2.484375 C 0.765625 2.484375 1.65625 1.8125 2.25 0.546875 C 2.75 -0.546875 2.875 -1.640625 2.875 -2.484375 Z M 2.875 -2.484375 "/>
</symbol>
<symbol overflow="visible" id="glyph0-28">
<path style="stroke:none;" d="M 5.78125 -6.75 L 0.328125 -6.75 L 0.328125 -6.4375 L 0.5625 -6.4375 C 1.328125 -6.4375 1.34375 -6.328125 1.34375 -5.96875 L 1.34375 -0.78125 C 1.34375 -0.421875 1.328125 -0.3125 0.5625 -0.3125 L 0.328125 -0.3125 L 0.328125 0 C 0.671875 -0.03125 1.453125 -0.03125 1.828125 -0.03125 C 2.25 -0.03125 3.140625 -0.03125 3.5 0 L 3.5 -0.3125 L 3.171875 -0.3125 C 2.234375 -0.3125 2.234375 -0.4375 2.234375 -0.78125 L 2.234375 -3.21875 L 3.078125 -3.21875 C 4.03125 -3.21875 4.140625 -2.90625 4.140625 -2.0625 L 4.390625 -2.0625 L 4.390625 -4.6875 L 4.140625 -4.6875 C 4.140625 -3.859375 4.03125 -3.53125 3.078125 -3.53125 L 2.234375 -3.53125 L 2.234375 -6.046875 C 2.234375 -6.375 2.25 -6.4375 2.71875 -6.4375 L 3.90625 -6.4375 C 5.390625 -6.4375 5.640625 -5.890625 5.796875 -4.515625 L 6.046875 -4.515625 Z M 5.78125 -6.75 "/>
</symbol>
<symbol overflow="visible" id="glyph0-29">
<path style="stroke:none;" d="M 1.09375 -3.40625 L 1.09375 -0.75 C 1.09375 -0.3125 0.984375 -0.3125 0.3125 -0.3125 L 0.3125 0 C 0.671875 -0.015625 1.171875 -0.03125 1.4375 -0.03125 C 1.703125 -0.03125 2.21875 -0.015625 2.546875 0 L 2.546875 -0.3125 C 1.890625 -0.3125 1.78125 -0.3125 1.78125 -0.75 L 1.78125 -2.578125 C 1.78125 -3.609375 2.484375 -4.171875 3.109375 -4.171875 C 3.734375 -4.171875 3.84375 -3.625 3.84375 -3.0625 L 3.84375 -0.75 C 3.84375 -0.3125 3.734375 -0.3125 3.078125 -0.3125 L 3.078125 0 C 3.421875 -0.015625 3.921875 -0.03125 4.203125 -0.03125 C 4.453125 -0.03125 4.96875 -0.015625 5.3125 0 L 5.3125 -0.3125 C 4.640625 -0.3125 4.53125 -0.3125 4.53125 -0.75 L 4.53125 -2.578125 C 4.53125 -3.609375 5.234375 -4.171875 5.875 -4.171875 C 6.5 -4.171875 6.609375 -3.625 6.609375 -3.0625 L 6.609375 -0.75 C 6.609375 -0.3125 6.5 -0.3125 5.828125 -0.3125 L 5.828125 0 C 6.1875 -0.015625 6.6875 -0.03125 6.953125 -0.03125 C 7.21875 -0.03125 7.734375 -0.015625 8.0625 0 L 8.0625 -0.3125 C 7.546875 -0.3125 7.296875 -0.3125 7.296875 -0.609375 L 7.296875 -2.5 C 7.296875 -3.359375 7.296875 -3.65625 6.984375 -4.015625 C 6.84375 -4.1875 6.515625 -4.390625 5.9375 -4.390625 C 5.109375 -4.390625 4.671875 -3.796875 4.5 -3.40625 C 4.359375 -4.28125 3.625 -4.390625 3.1875 -4.390625 C 2.453125 -4.390625 2 -3.953125 1.71875 -3.34375 L 1.71875 -4.390625 L 0.3125 -4.28125 L 0.3125 -3.96875 C 1.015625 -3.96875 1.09375 -3.90625 1.09375 -3.40625 Z M 1.09375 -3.40625 "/>
</symbol>
<symbol overflow="visible" id="glyph0-30">
<path style="stroke:none;" d="M 6.609375 -6.71875 L 0.546875 -6.71875 L 0.359375 -4.484375 L 0.609375 -4.484375 C 0.75 -6.078125 0.890625 -6.40625 2.390625 -6.40625 C 2.5625 -6.40625 2.828125 -6.40625 2.921875 -6.390625 C 3.140625 -6.34375 3.140625 -6.234375 3.140625 -6.015625 L 3.140625 -0.78125 C 3.140625 -0.453125 3.140625 -0.3125 2.09375 -0.3125 L 1.703125 -0.3125 L 1.703125 0 C 2.109375 -0.03125 3.109375 -0.03125 3.578125 -0.03125 C 4.03125 -0.03125 5.046875 -0.03125 5.453125 0 L 5.453125 -0.3125 L 5.0625 -0.3125 C 4.015625 -0.3125 4.015625 -0.453125 4.015625 -0.78125 L 4.015625 -6.015625 C 4.015625 -6.21875 4.015625 -6.34375 4.203125 -6.390625 C 4.3125 -6.40625 4.578125 -6.40625 4.765625 -6.40625 C 6.265625 -6.40625 6.40625 -6.078125 6.546875 -4.484375 L 6.796875 -4.484375 Z M 6.609375 -6.71875 "/>
</symbol>
<symbol overflow="visible" id="glyph0-31">
<path style="stroke:none;" d="M 6.8125 -3.25 C 6.96875 -3.25 7.15625 -3.25 7.15625 -3.4375 C 7.15625 -3.640625 6.96875 -3.640625 6.828125 -3.640625 L 0.890625 -3.640625 C 0.75 -3.640625 0.5625 -3.640625 0.5625 -3.4375 C 0.5625 -3.25 0.75 -3.25 0.890625 -3.25 Z M 6.828125 -1.3125 C 6.96875 -1.3125 7.15625 -1.3125 7.15625 -1.515625 C 7.15625 -1.71875 6.96875 -1.71875 6.8125 -1.71875 L 0.890625 -1.71875 C 0.75 -1.71875 0.5625 -1.71875 0.5625 -1.515625 C 0.5625 -1.3125 0.75 -1.3125 0.890625 -1.3125 Z M 6.828125 -1.3125 "/>
</symbol>
<symbol overflow="visible" id="glyph0-32">
<path style="stroke:none;" d="M 4.125 -3.328125 C 4.375 -3.953125 4.875 -3.96875 5.046875 -3.96875 L 5.046875 -4.28125 C 4.8125 -4.25 4.53125 -4.25 4.296875 -4.25 C 4.125 -4.25 3.65625 -4.265625 3.4375 -4.28125 L 3.4375 -3.96875 C 3.734375 -3.953125 3.90625 -3.796875 3.90625 -3.546875 C 3.90625 -3.4375 3.890625 -3.421875 3.84375 -3.296875 L 2.84375 -0.859375 L 1.734375 -3.53125 C 1.703125 -3.625 1.671875 -3.671875 1.671875 -3.703125 C 1.671875 -3.96875 2.046875 -3.96875 2.234375 -3.96875 L 2.234375 -4.28125 C 1.96875 -4.265625 1.3125 -4.25 1.15625 -4.25 C 0.890625 -4.25 0.484375 -4.25 0.1875 -4.28125 L 0.1875 -3.96875 C 0.671875 -3.96875 0.859375 -3.96875 0.984375 -3.625 L 2.484375 0 C 2.4375 0.125 2.296875 0.453125 2.234375 0.578125 C 2.015625 1.125 1.734375 1.8125 1.09375 1.8125 C 1.046875 1.8125 0.828125 1.8125 0.640625 1.640625 C 0.9375 1.59375 1.015625 1.375 1.015625 1.21875 C 1.015625 0.96875 0.828125 0.796875 0.609375 0.796875 C 0.40625 0.796875 0.1875 0.9375 0.1875 1.234375 C 0.1875 1.671875 0.609375 2.03125 1.09375 2.03125 C 1.71875 2.03125 2.140625 1.46875 2.375 0.90625 Z M 4.125 -3.328125 "/>
</symbol>
<symbol overflow="visible" id="glyph1-0">
<path style="stroke:none;" d=""/>
</symbol>
<symbol overflow="visible" id="glyph1-1">
<path style="stroke:none;" d="M 1.3125 -0.828125 C 1.859375 -1.40625 2.140625 -1.640625 2.5 -1.953125 C 2.5 -1.96875 3.109375 -2.484375 3.46875 -2.84375 C 4.421875 -3.765625 4.640625 -4.25 4.640625 -4.28125 C 4.640625 -4.390625 4.546875 -4.390625 4.53125 -4.390625 C 4.453125 -4.390625 4.421875 -4.359375 4.375 -4.28125 C 4.078125 -3.796875 3.875 -3.640625 3.625 -3.640625 C 3.390625 -3.640625 3.28125 -3.796875 3.125 -3.953125 C 2.9375 -4.1875 2.765625 -4.390625 2.4375 -4.390625 C 1.703125 -4.390625 1.234375 -3.46875 1.234375 -3.25 C 1.234375 -3.203125 1.265625 -3.140625 1.359375 -3.140625 C 1.453125 -3.140625 1.46875 -3.1875 1.484375 -3.25 C 1.671875 -3.703125 2.25 -3.71875 2.328125 -3.71875 C 2.546875 -3.71875 2.734375 -3.65625 2.953125 -3.578125 C 3.359375 -3.421875 3.46875 -3.421875 3.71875 -3.421875 C 3.359375 -3 2.53125 -2.28125 2.34375 -2.125 L 1.453125 -1.296875 C 0.78125 -0.625 0.421875 -0.0625 0.421875 0.015625 C 0.421875 0.109375 0.53125 0.109375 0.546875 0.109375 C 0.625 0.109375 0.640625 0.09375 0.703125 -0.015625 C 0.9375 -0.359375 1.234375 -0.640625 1.546875 -0.640625 C 1.78125 -0.640625 1.875 -0.546875 2.125 -0.265625 C 2.296875 -0.046875 2.46875 0.109375 2.765625 0.109375 C 3.734375 0.109375 4.3125 -1.15625 4.3125 -1.421875 C 4.3125 -1.46875 4.28125 -1.515625 4.203125 -1.515625 C 4.109375 -1.515625 4.09375 -1.453125 4.0625 -1.390625 C 3.828125 -0.75 3.1875 -0.5625 2.875 -0.5625 C 2.671875 -0.5625 2.484375 -0.609375 2.28125 -0.6875 C 1.9375 -0.8125 1.796875 -0.859375 1.59375 -0.859375 C 1.5625 -0.859375 1.40625 -0.859375 1.3125 -0.828125 Z M 1.3125 -0.828125 "/>
</symbol>
<symbol overflow="visible" id="glyph1-2">
<path style="stroke:none;" d="M 3 -3.21875 L 3.96875 -3.21875 C 4.71875 -3.21875 4.796875 -3.0625 4.796875 -2.78125 C 4.796875 -2.703125 4.796875 -2.59375 4.71875 -2.296875 C 4.703125 -2.25 4.6875 -2.203125 4.6875 -2.1875 C 4.6875 -2.109375 4.75 -2.0625 4.8125 -2.0625 C 4.90625 -2.0625 4.90625 -2.09375 4.953125 -2.265625 L 5.5 -4.421875 C 5.53125 -4.53125 5.53125 -4.546875 5.53125 -4.578125 C 5.53125 -4.609375 5.515625 -4.6875 5.421875 -4.6875 C 5.3125 -4.6875 5.3125 -4.640625 5.265625 -4.484375 C 5.0625 -3.703125 4.828125 -3.53125 3.984375 -3.53125 L 3.078125 -3.53125 L 3.71875 -6.046875 C 3.8125 -6.40625 3.8125 -6.4375 4.25 -6.4375 L 5.5625 -6.4375 C 6.78125 -6.4375 7.015625 -6.109375 7.015625 -5.34375 C 7.015625 -5.125 7.015625 -5.078125 6.984375 -4.8125 C 6.96875 -4.6875 6.96875 -4.65625 6.96875 -4.640625 C 6.96875 -4.578125 7 -4.515625 7.078125 -4.515625 C 7.1875 -4.515625 7.203125 -4.578125 7.21875 -4.765625 L 7.421875 -6.484375 C 7.453125 -6.75 7.40625 -6.75 7.15625 -6.75 L 2.296875 -6.75 C 2.09375 -6.75 2 -6.75 2 -6.546875 C 2 -6.4375 2.078125 -6.4375 2.265625 -6.4375 C 2.640625 -6.4375 2.921875 -6.4375 2.921875 -6.265625 C 2.921875 -6.21875 2.921875 -6.203125 2.875 -6.015625 L 1.5625 -0.78125 C 1.453125 -0.390625 1.4375 -0.3125 0.65625 -0.3125 C 0.484375 -0.3125 0.375 -0.3125 0.375 -0.125 C 0.375 0 0.5 0 0.53125 0 C 0.8125 0 1.546875 -0.03125 1.828125 -0.03125 C 2.15625 -0.03125 2.984375 0 3.3125 0 C 3.40625 0 3.515625 0 3.515625 -0.1875 C 3.515625 -0.265625 3.46875 -0.28125 3.46875 -0.296875 C 3.4375 -0.3125 3.40625 -0.3125 3.1875 -0.3125 C 2.96875 -0.3125 2.921875 -0.3125 2.671875 -0.328125 C 2.375 -0.359375 2.34375 -0.390625 2.34375 -0.53125 C 2.34375 -0.546875 2.34375 -0.609375 2.390625 -0.75 Z M 3 -3.21875 "/>
</symbol>
<symbol overflow="visible" id="glyph1-3">
<path style="stroke:none;" d="M 4.484375 -4.28125 C 4.484375 -4.3125 4.453125 -4.375 4.390625 -4.375 C 4.28125 -4.375 3.875 -3.984375 3.703125 -3.6875 C 3.5 -4.234375 3.109375 -4.390625 2.78125 -4.390625 C 1.625 -4.390625 0.390625 -2.921875 0.390625 -1.484375 C 0.390625 -0.5 0.984375 0.109375 1.703125 0.109375 C 2.140625 0.109375 2.515625 -0.125 2.875 -0.484375 C 2.78125 -0.140625 2.453125 1.203125 2.4375 1.296875 C 2.34375 1.5625 2.265625 1.609375 1.71875 1.625 C 1.59375 1.625 1.484375 1.625 1.484375 1.8125 C 1.484375 1.828125 1.484375 1.921875 1.625 1.921875 C 1.9375 1.921875 2.28125 1.890625 2.609375 1.890625 C 2.953125 1.890625 3.296875 1.921875 3.625 1.921875 C 3.6875 1.921875 3.8125 1.921875 3.8125 1.71875 C 3.8125 1.625 3.703125 1.625 3.546875 1.625 C 3.078125 1.625 3.078125 1.546875 3.078125 1.453125 C 3.078125 1.390625 3.09375 1.328125 3.109375 1.234375 Z M 1.734375 -0.109375 C 1.140625 -0.109375 1.09375 -0.875 1.09375 -1.046875 C 1.09375 -1.515625 1.390625 -2.59375 1.5625 -3.015625 C 1.859375 -3.75 2.375 -4.171875 2.78125 -4.171875 C 3.4375 -4.171875 3.578125 -3.359375 3.578125 -3.296875 C 3.578125 -3.234375 3.03125 -1.0625 3 -1.015625 C 2.84375 -0.75 2.296875 -0.109375 1.734375 -0.109375 Z M 1.734375 -0.109375 "/>
</symbol>
<symbol overflow="visible" id="glyph1-4">
<path style="stroke:none;" d="M 7.34375 -4.328125 C 7.34375 -5.921875 6.296875 -7 4.8125 -7 C 2.671875 -7 0.484375 -4.75 0.484375 -2.4375 C 0.484375 -0.78125 1.59375 0.21875 3.03125 0.21875 C 5.125 0.21875 7.34375 -1.953125 7.34375 -4.328125 Z M 3.078125 -0.046875 C 2.109375 -0.046875 1.40625 -0.84375 1.40625 -2.15625 C 1.40625 -2.59375 1.546875 -4.03125 2.3125 -5.203125 C 3 -6.234375 3.96875 -6.75 4.75 -6.75 C 5.5625 -6.75 6.453125 -6.1875 6.453125 -4.71875 C 6.453125 -4 6.1875 -2.453125 5.203125 -1.234375 C 4.734375 -0.625 3.921875 -0.046875 3.078125 -0.046875 Z M 3.078125 -0.046875 "/>
</symbol>
</g>
<clipPath id="clip1">
  <path d="M 77 0.171875 L 157 0.171875 L 157 77 L 77 77 Z M 77 0.171875 "/>
</clipPath>
<clipPath id="clip2">
  <path d="M 159 81 L 234.417969 81 L 234.417969 130 L 159 130 Z M 159 81 "/>
</clipPath>
<clipPath id="clip3">
  <path d="M 159 144 L 234.417969 144 L 234.417969 192 L 159 192 Z M 159 144 "/>
</clipPath>
<clipPath id="clip4">
  <path d="M 82 204 L 153 204 L 153 271.683594 L 82 271.683594 Z M 82 204 "/>
</clipPath>
</defs>
<g id="surface1">
<path style="fill-rule:nonzero;fill:rgb(59.999084%,100%,59.999084%);fill-opacity:1;stroke-width:0.3985;stroke-linecap:butt;stroke-linejoin:miter;stroke:rgb(0%,0%,0%);stroke-opacity:1;stroke-miterlimit:10;" d="M 24.243346 19.923677 L -24.243798 19.923677 C -26.442593 19.923677 -28.225929 18.140341 -28.225929 15.941546 L -28.225929 -15.939016 C -28.225929 -18.14173 -26.442593 -19.925066 -24.243798 -19.925066 L 24.243346 -19.925066 C 26.44214 -19.925066 28.229396 -18.14173 28.229396 -15.939016 L 28.229396 15.941546 C 28.229396 18.140341 26.44214 19.923677 24.243346 19.923677 Z M 24.243346 19.923677 " transform="matrix(0.99664,0,0,-0.99664,36.27171,37.329386)"/>
<g style="fill:rgb(0%,0%,0%);fill-opacity:1;">
  <use xlink:href="#glyph0-1" x="25.225951" y="28.806122"/>
  <use xlink:href="#glyph0-2" x="30.742572" y="28.806122"/>
  <use xlink:href="#glyph0-3" x="34.604008" y="28.806122"/>
  <use xlink:href="#glyph0-4" x="39.56857" y="28.806122"/>
  <use xlink:href="#glyph0-2" x="43.457808" y="28.806122"/>
</g>
<g style="fill:rgb(0%,0%,0%);fill-opacity:1;">
  <use xlink:href="#glyph0-5" x="21.199526" y="40.721948"/>
  <use xlink:href="#glyph0-3" x="30.301554" y="40.721948"/>
  <use xlink:href="#glyph0-6" x="35.266116" y="40.721948"/>
  <use xlink:href="#glyph0-2" x="39.182162" y="40.721948"/>
  <use xlink:href="#glyph0-7" x="43.043599" y="40.721948"/>
  <use xlink:href="#glyph0-4" x="47.456101" y="40.721948"/>
</g>
<g style="fill:rgb(0%,0%,0%);fill-opacity:1;">
  <use xlink:href="#glyph0-8" x="25.37744" y="52.636777"/>
  <use xlink:href="#glyph0-9" x="32.410239" y="52.636777"/>
  <use xlink:href="#glyph0-8" x="40.133111" y="52.636777"/>
</g>
<path style=" stroke:none;fill-rule:nonzero;fill:rgb(79.998779%,79.998779%,100%);fill-opacity:1;" d="M 150.859375 37.328125 L 117.207031 3.679688 L 83.558594 37.328125 L 117.207031 70.980469 Z M 150.859375 37.328125 "/>
<g clip-path="url(#clip1)" clip-rule="nonzero">
<path style="fill:none;stroke-width:0.3985;stroke-linecap:butt;stroke-linejoin:miter;stroke:rgb(0%,0%,0%);stroke-opacity:1;stroke-miterlimit:10;" d="M 33.764997 0.00126519 L -0.000805444 33.763148 L -33.762689 0.00126519 L -0.000805444 -33.764537 Z M 33.764997 0.00126519 " transform="matrix(0.99664,0,0,-0.99664,117.207834,37.329386)"/>
</g>
<g style="fill:rgb(0%,0%,0%);fill-opacity:1;">
  <use xlink:href="#glyph0-10" x="97.046807" y="34.81885"/>
  <use xlink:href="#glyph0-11" x="100.632214" y="34.81885"/>
</g>
<g style="fill:rgb(0%,0%,0%);fill-opacity:1;">
  <use xlink:href="#glyph0-2" x="105.870819" y="34.81885"/>
  <use xlink:href="#glyph0-12" x="109.732256" y="34.81885"/>
</g>
<g style="fill:rgb(0%,0%,0%);fill-opacity:1;">
  <use xlink:href="#glyph0-6" x="116.909026" y="34.81885"/>
  <use xlink:href="#glyph0-13" x="120.825073" y="34.81885"/>
  <use xlink:href="#glyph0-14" x="125.789635" y="34.81885"/>
  <use xlink:href="#glyph0-15" x="128.547946" y="34.81885"/>
  <use xlink:href="#glyph0-16" x="134.064567" y="34.81885"/>
</g>
<g style="fill:rgb(0%,0%,0%);fill-opacity:1;">
  <use xlink:href="#glyph0-2" x="101.580521" y="46.734676"/>
  <use xlink:href="#glyph0-17" x="105.441958" y="46.734676"/>
  <use xlink:href="#glyph0-13" x="108.200268" y="46.734676"/>
  <use xlink:href="#glyph0-11" x="113.16483" y="46.734676"/>
  <use xlink:href="#glyph0-18" x="118.681452" y="46.734676"/>
</g>
<g style="fill:rgb(0%,0%,0%);fill-opacity:1;">
  <use xlink:href="#glyph0-19" x="128.374262" y="46.734676"/>
</g>
<g style="fill:rgb(0%,0%,0%);fill-opacity:1;">
  <use xlink:href="#glyph1-1" x="127.782183" y="46.734676"/>
</g>
<path style="fill-rule:nonzero;fill:rgb(100%,79.998779%,79.998779%);fill-opacity:1;stroke-width:0.3985;stroke-linecap:butt;stroke-linejoin:miter;stroke:rgb(0%,0%,0%);stroke-opacity:1;stroke-miterlimit:10;" d="M 32.874908 0.000776065 C 32.874908 9.963941 18.157486 18.041866 -0.00118609 18.041866 C -18.155939 18.041866 -32.873361 9.963941 -32.873361 0.000776065 C -32.873361 -9.966309 -18.155939 -18.040314 -0.00118609 -18.040314 C 18.157486 -18.040314 32.874908 -9.966309 32.874908 0.000776065 Z M 32.874908 0.000776065 " transform="matrix(0.99664,0,0,-0.99664,36.270713,105.414836)"/>
<g style="fill:rgb(0%,0%,0%);fill-opacity:1;">
  <use xlink:href="#glyph0-20" x="18.481689" y="102.9043"/>
  <use xlink:href="#glyph0-21" x="25.928532" y="102.9043"/>
  <use xlink:href="#glyph0-21" x="31.445153" y="102.9043"/>
</g>
<g style="fill:rgb(0%,0%,0%);fill-opacity:1;">
  <use xlink:href="#glyph0-22" x="40.268173" y="102.9043"/>
  <use xlink:href="#glyph0-15" x="44.680676" y="102.9043"/>
  <use xlink:href="#glyph0-2" x="50.197297" y="102.9043"/>
</g>
<g style="fill:rgb(0%,0%,0%);fill-opacity:1;">
  <use xlink:href="#glyph0-2" x="26.321258" y="114.819129"/>
  <use xlink:href="#glyph0-13" x="30.182694" y="114.819129"/>
</g>
<g style="fill:rgb(0%,0%,0%);fill-opacity:1;">
  <use xlink:href="#glyph1-2" x="38.457341" y="114.819129"/>
</g>
<path style="fill-rule:nonzero;fill:rgb(79.998779%,79.998779%,100%);fill-opacity:1;stroke-width:0.3985;stroke-linecap:butt;stroke-linejoin:miter;stroke:rgb(0%,0%,0%);stroke-opacity:1;stroke-miterlimit:10;" d="M 24.240807 19.981979 L -24.242418 19.981979 C -26.445132 19.981979 -28.228468 18.194723 -28.228468 15.995929 L -28.228468 -15.994377 C -28.228468 -18.197091 -26.445132 -19.980427 -24.242418 -19.980427 L 24.240807 -19.980427 C 26.443521 -19.980427 28.226857 -18.197091 28.226857 -15.994377 L 28.226857 15.995929 C 28.226857 18.194723 26.443521 19.981979 24.240807 19.981979 Z M 24.240807 19.981979 " transform="matrix(0.99664,0,0,-0.99664,117.207834,105.414836)"/>
<g style="fill:rgb(0%,0%,0%);fill-opacity:1;">
  <use xlink:href="#glyph0-1" x="105.898962" y="95.705571"/>
  <use xlink:href="#glyph0-13" x="111.415583" y="95.705571"/>
  <use xlink:href="#glyph0-14" x="116.380145" y="95.705571"/>
  <use xlink:href="#glyph0-23" x="119.138456" y="95.705571"/>
</g>
<g style="fill:rgb(0%,0%,0%);fill-opacity:1;">
  <use xlink:href="#glyph0-7" x="124.101032" y="95.705571"/>
</g>
<g style="fill:rgb(0%,0%,0%);fill-opacity:1;">
  <use xlink:href="#glyph0-6" x="102.562212" y="107.6204"/>
  <use xlink:href="#glyph0-15" x="106.478258" y="107.6204"/>
  <use xlink:href="#glyph0-24" x="111.994879" y="107.6204"/>
  <use xlink:href="#glyph0-16" x="117.511501" y="107.6204"/>
  <use xlink:href="#glyph0-25" x="120.820878" y="107.6204"/>
  <use xlink:href="#glyph0-24" x="126.337499" y="107.6204"/>
</g>
<g style="fill:rgb(0%,0%,0%);fill-opacity:1;">
  <use xlink:href="#glyph1-3" x="108.424447" y="119.536226"/>
</g>
<g style="fill:rgb(0%,0%,0%);fill-opacity:1;">
  <use xlink:href="#glyph0-26" x="113.213302" y="119.536226"/>
</g>
<g style="fill:rgb(0%,0%,0%);fill-opacity:1;">
  <use xlink:href="#glyph0-19" x="117.670485" y="119.536226"/>
</g>
<g style="fill:rgb(0%,0%,0%);fill-opacity:1;">
  <use xlink:href="#glyph1-1" x="117.074284" y="119.536226"/>
</g>
<g style="fill:rgb(0%,0%,0%);fill-opacity:1;">
  <use xlink:href="#glyph0-27" x="122.129241" y="119.536226"/>
</g>
<path style=" stroke:none;fill-rule:nonzero;fill:rgb(100%,79.998779%,79.998779%);fill-opacity:1;" d="M 230.910156 105.414062 C 230.910156 95.484375 216.238281 87.433594 198.144531 87.433594 C 180.046875 87.433594 165.378906 95.484375 165.378906 105.414062 C 165.378906 115.347656 180.046875 123.394531 198.144531 123.394531 C 216.238281 123.394531 230.910156 115.347656 230.910156 105.414062 Z M 230.910156 105.414062 "/>
<g clip-path="url(#clip2)" clip-rule="nonzero">
<path style="fill:none;stroke-width:0.3985;stroke-linecap:butt;stroke-linejoin:miter;stroke:rgb(0%,0%,0%);stroke-opacity:1;stroke-miterlimit:10;" d="M 32.876669 0.000776065 C 32.876669 9.963941 18.155328 18.041866 0.0005752 18.041866 C -18.158097 18.041866 -32.875519 9.963941 -32.875519 0.000776065 C -32.875519 -9.966309 -18.158097 -18.040314 0.0005752 -18.040314 C 18.155328 -18.040314 32.876669 -9.966309 32.876669 0.000776065 Z M 32.876669 0.000776065 " transform="matrix(0.99664,0,0,-0.99664,198.143958,105.414836)"/>
</g>
<g style="fill:rgb(0%,0%,0%);fill-opacity:1;">
  <use xlink:href="#glyph0-20" x="180.353937" y="102.9043"/>
  <use xlink:href="#glyph0-21" x="187.80078" y="102.9043"/>
  <use xlink:href="#glyph0-21" x="193.317401" y="102.9043"/>
</g>
<g style="fill:rgb(0%,0%,0%);fill-opacity:1;">
  <use xlink:href="#glyph0-22" x="202.140421" y="102.9043"/>
  <use xlink:href="#glyph0-15" x="206.552924" y="102.9043"/>
  <use xlink:href="#glyph0-2" x="212.069545" y="102.9043"/>
</g>
<g style="fill:rgb(0%,0%,0%);fill-opacity:1;">
  <use xlink:href="#glyph0-2" x="188.15065" y="114.819129"/>
  <use xlink:href="#glyph0-13" x="192.012087" y="114.819129"/>
</g>
<g style="fill:rgb(0%,0%,0%);fill-opacity:1;">
  <use xlink:href="#glyph1-4" x="200.286734" y="114.819129"/>
</g>
<path style="fill-rule:nonzero;fill:rgb(79.998779%,79.998779%,100%);fill-opacity:1;stroke-width:0.3985;stroke-linecap:butt;stroke-linejoin:miter;stroke:rgb(0%,0%,0%);stroke-opacity:1;stroke-miterlimit:10;" d="M 27.783962 -0.000597686 L -0.000805444 27.78417 L -27.785573 -0.000597686 L -0.000805444 -27.785365 Z M 27.783962 -0.000597686 " transform="matrix(0.99664,0,0,-0.99664,117.207834,167.542373)"/>
<g style="fill:rgb(0%,0%,0%);fill-opacity:1;">
  <use xlink:href="#glyph0-28" x="97.66572" y="170.98975"/>
</g>
<g style="fill:rgb(0%,0%,0%);fill-opacity:1;">
  <use xlink:href="#glyph0-7" x="103.323335" y="170.98975"/>
  <use xlink:href="#glyph0-3" x="107.735838" y="170.98975"/>
  <use xlink:href="#glyph0-6" x="112.7004" y="170.98975"/>
  <use xlink:href="#glyph0-17" x="116.616446" y="170.98975"/>
  <use xlink:href="#glyph0-24" x="119.374757" y="170.98975"/>
  <use xlink:href="#glyph0-14" x="124.891378" y="170.98975"/>
  <use xlink:href="#glyph0-7" x="127.649689" y="170.98975"/>
  <use xlink:href="#glyph0-18" x="132.062191" y="170.98975"/>
</g>
<path style=" stroke:none;fill-rule:nonzero;fill:rgb(100%,79.998779%,79.998779%);fill-opacity:1;" d="M 230.910156 167.542969 C 230.910156 157.65625 216.238281 149.640625 198.144531 149.640625 C 180.046875 149.640625 165.378906 157.65625 165.378906 167.542969 C 165.378906 177.429688 180.046875 185.445312 198.144531 185.445312 C 216.238281 185.445312 230.910156 177.429688 230.910156 167.542969 Z M 230.910156 167.542969 "/>
<g clip-path="url(#clip3)" clip-rule="nonzero">
<path style="fill:none;stroke-width:0.3985;stroke-linecap:butt;stroke-linejoin:miter;stroke:rgb(0%,0%,0%);stroke-opacity:1;stroke-miterlimit:10;" d="M 32.876669 -0.000597686 C 32.876669 9.919454 18.155328 17.962104 0.0005752 17.962104 C -18.158097 17.962104 -32.875519 9.919454 -32.875519 -0.000597686 C -32.875519 -9.920649 -18.158097 -17.963299 0.0005752 -17.963299 C 18.155328 -17.963299 32.876669 -9.920649 32.876669 -0.000597686 Z M 32.876669 -0.000597686 " transform="matrix(0.99664,0,0,-0.99664,198.143958,167.542373)"/>
</g>
<g style="fill:rgb(0%,0%,0%);fill-opacity:1;">
  <use xlink:href="#glyph0-1" x="180.905079" y="164.977022"/>
  <use xlink:href="#glyph0-3" x="186.4217" y="164.977022"/>
</g>
<g style="fill:rgb(0%,0%,0%);fill-opacity:1;">
  <use xlink:href="#glyph0-23" x="191.108247" y="164.977022"/>
</g>
<g style="fill:rgb(0%,0%,0%);fill-opacity:1;">
  <use xlink:href="#glyph0-7" x="196.070823" y="164.977022"/>
</g>
<g style="fill:rgb(0%,0%,0%);fill-opacity:1;">
  <use xlink:href="#glyph0-17" x="203.799653" y="164.977022"/>
  <use xlink:href="#glyph0-11" x="206.557964" y="164.977022"/>
  <use xlink:href="#glyph0-16" x="212.074585" y="164.977022"/>
</g>
<g style="fill:rgb(0%,0%,0%);fill-opacity:1;">
  <use xlink:href="#glyph0-22" x="179.526726" y="176.891851"/>
  <use xlink:href="#glyph0-15" x="183.939229" y="176.891851"/>
  <use xlink:href="#glyph0-29" x="189.45585" y="176.891851"/>
</g>
<g style="fill:rgb(0%,0%,0%);fill-opacity:1;">
  <use xlink:href="#glyph0-24" x="197.451773" y="176.891851"/>
</g>
<g style="fill:rgb(0%,0%,0%);fill-opacity:1;">
  <use xlink:href="#glyph0-7" x="203.24641" y="176.891851"/>
  <use xlink:href="#glyph0-11" x="207.658913" y="176.891851"/>
</g>
<g style="fill:rgb(0%,0%,0%);fill-opacity:1;">
  <use xlink:href="#glyph0-2" x="212.897519" y="176.891851"/>
</g>
<path style="fill-rule:nonzero;fill:rgb(59.999084%,100%,59.999084%);fill-opacity:1;stroke-width:0.3985;stroke-linecap:butt;stroke-linejoin:miter;stroke:rgb(0%,0%,0%);stroke-opacity:1;stroke-miterlimit:10;" d="M 24.244346 19.927059 L -24.242798 19.927059 C -26.441593 19.927059 -28.228848 18.139804 -28.228848 15.941009 L -28.228848 -15.939552 C -28.228848 -18.142266 -26.441593 -19.925602 -24.242798 -19.925602 L 24.244346 -19.925602 C 26.44314 -19.925602 28.226476 -18.142266 28.226476 -15.939552 L 28.226476 15.941009 C 28.226476 18.139804 26.44314 19.927059 24.244346 19.927059 Z M 24.244346 19.927059 " transform="matrix(0.99664,0,0,-0.99664,36.270713,238.96557)"/>
<g style="fill:rgb(0%,0%,0%);fill-opacity:1;">
  <use xlink:href="#glyph0-30" x="14.054615" y="242.358132"/>
</g>
<g style="fill:rgb(0%,0%,0%);fill-opacity:1;">
  <use xlink:href="#glyph0-7" x="20.401311" y="242.358132"/>
  <use xlink:href="#glyph0-4" x="24.813814" y="242.358132"/>
  <use xlink:href="#glyph0-29" x="28.703051" y="242.358132"/>
  <use xlink:href="#glyph0-17" x="36.97699" y="242.358132"/>
  <use xlink:href="#glyph0-11" x="39.735301" y="242.358132"/>
  <use xlink:href="#glyph0-3" x="45.251922" y="242.358132"/>
  <use xlink:href="#glyph0-2" x="50.216484" y="242.358132"/>
  <use xlink:href="#glyph0-7" x="54.077921" y="242.358132"/>
</g>
<path style=" stroke:none;fill-rule:nonzero;fill:rgb(79.998779%,79.998779%,100%);fill-opacity:1;" d="M 146.417969 238.964844 L 117.207031 209.757812 L 88 238.964844 L 117.207031 268.175781 Z M 146.417969 238.964844 "/>
<g clip-path="url(#clip4)" clip-rule="nonzero">
<path style="fill:none;stroke-width:0.3985;stroke-linecap:butt;stroke-linejoin:miter;stroke:rgb(0%,0%,0%);stroke-opacity:1;stroke-miterlimit:10;" d="M 29.308617 0.000728584 L -0.000805444 29.306231 L -29.306308 0.000728584 L -0.000805444 -29.308694 Z M 29.308617 0.000728584 " transform="matrix(0.99664,0,0,-0.99664,117.207834,238.96557)"/>
</g>
<g style="fill:rgb(0%,0%,0%);fill-opacity:1;">
  <use xlink:href="#glyph1-3" x="99.410837" y="241.4482"/>
</g>
<g style="fill:rgb(0%,0%,0%);fill-opacity:1;">
  <use xlink:href="#glyph0-31" x="106.957393" y="241.4482"/>
</g>
<g style="fill:rgb(0%,0%,0%);fill-opacity:1;">
  <use xlink:href="#glyph1-3" x="117.438058" y="241.4482"/>
</g>
<g style="fill:rgb(0%,0%,0%);fill-opacity:1;">
  <use xlink:href="#glyph0-26" x="122.226912" y="241.4482"/>
</g>
<g style="fill:rgb(0%,0%,0%);fill-opacity:1;">
  <use xlink:href="#glyph0-19" x="126.684096" y="241.4482"/>
</g>
<g style="fill:rgb(0%,0%,0%);fill-opacity:1;">
  <use xlink:href="#glyph1-1" x="126.087895" y="241.4482"/>
</g>
<g style="fill:rgb(0%,0%,0%);fill-opacity:1;">
  <use xlink:href="#glyph0-27" x="131.142852" y="241.4482"/>
</g>
<path style="fill:none;stroke-width:1.19553;stroke-linecap:butt;stroke-linejoin:miter;stroke:rgb(50%,50%,50%);stroke-opacity:1;stroke-miterlimit:10;" d="M -52.783633 98.931265 L -37.87416 98.931265 " transform="matrix(0.99664,0,0,-0.99664,117.207834,135.926964)"/>
<path style=" stroke:none;fill-rule:nonzero;fill:rgb(50%,50%,50%);fill-opacity:1;" d="M 83.273438 37.328125 C 81.683594 37.011719 78.824219 36.375 76.917969 34.945312 C 78.507812 36.691406 78.507812 37.964844 76.917969 39.710938 C 78.824219 38.28125 81.683594 37.644531 83.273438 37.328125 Z M 83.273438 37.328125 "/>
<path style="fill:none;stroke-width:1.19553;stroke-linecap:butt;stroke-linejoin:miter;stroke:rgb(50%,50%,50%);stroke-opacity:1;stroke-miterlimit:10;" d="M -0.000805444 64.883264 L -0.000805444 54.622223 " transform="matrix(0.99664,0,0,-0.99664,117.207834,135.926964)"/>
<path style=" stroke:none;fill-rule:nonzero;fill:rgb(50%,50%,50%);fill-opacity:1;" d="M 117.207031 85.300781 C 117.527344 83.714844 118.160156 80.855469 119.589844 78.945312 C 117.84375 80.535156 116.574219 80.535156 114.824219 78.945312 C 116.253906 80.855469 116.890625 83.714844 117.207031 85.300781 Z M 117.207031 85.300781 "/>
<g style="fill:rgb(50%,50%,50%);fill-opacity:1;">
  <use xlink:href="#glyph0-32" x="121.112669" y="75.945193"/>
</g>
<g style="fill:rgb(50%,50%,50%);fill-opacity:1;">
  <use xlink:href="#glyph0-7" x="126.075245" y="75.945193"/>
  <use xlink:href="#glyph0-6" x="130.487748" y="75.945193"/>
</g>
<path style="fill:none;stroke-width:1.19553;stroke-linecap:butt;stroke-linejoin:miter;stroke:rgb(50%,50%,50%);stroke-opacity:1;stroke-miterlimit:10;" d="M -0.000805444 10.434683 L -0.000805444 0.173642 " transform="matrix(0.99664,0,0,-0.99664,117.207834,135.926964)"/>
<path style=" stroke:none;fill-rule:nonzero;fill:rgb(50%,50%,50%);fill-opacity:1;" d="M 117.207031 139.566406 C 117.527344 137.976562 118.160156 135.117188 119.589844 133.210938 C 117.84375 134.800781 116.574219 134.800781 114.824219 133.210938 C 116.253906 135.117188 116.890625 137.976562 117.207031 139.566406 Z M 117.207031 139.566406 "/>
<path style="fill:none;stroke-width:1.19553;stroke-linecap:butt;stroke-linejoin:miter;stroke:rgb(50%,50%,50%);stroke-opacity:1;stroke-miterlimit:10;" d="M -0.000805444 -59.793483 L -0.000805444 -69.968297 " transform="matrix(0.99664,0,0,-0.99664,117.207834,135.926964)"/>
<path style=" stroke:none;fill-rule:nonzero;fill:rgb(50%,50%,50%);fill-opacity:1;" d="M 117.207031 209.476562 C 117.527344 207.886719 118.160156 205.027344 119.589844 203.121094 C 117.84375 204.707031 116.574219 204.707031 114.824219 203.121094 C 116.253906 205.027344 116.890625 207.886719 117.207031 209.476562 Z M 117.207031 209.476562 "/>
<g style="fill:rgb(50%,50%,50%);fill-opacity:1;">
  <use xlink:href="#glyph0-32" x="121.112669" y="200.178341"/>
</g>
<g style="fill:rgb(50%,50%,50%);fill-opacity:1;">
  <use xlink:href="#glyph0-7" x="126.075245" y="200.178341"/>
  <use xlink:href="#glyph0-6" x="130.487748" y="200.178341"/>
</g>
<path style="fill:none;stroke-width:1.19553;stroke-linecap:butt;stroke-linejoin:miter;stroke:rgb(50%,50%,50%);stroke-opacity:1;stroke-miterlimit:10;" d="M -29.592426 -103.385271 L -48.95828 -103.385271 " transform="matrix(0.99664,0,0,-0.99664,117.207834,135.926964)"/>
<path style=" stroke:none;fill-rule:nonzero;fill:rgb(50%,50%,50%);fill-opacity:1;" d="M 64.601562 238.964844 C 66.191406 239.285156 69.050781 239.917969 70.957031 241.351562 C 69.367188 239.601562 69.367188 238.332031 70.957031 236.582031 C 69.050781 238.011719 66.191406 238.648438 64.601562 238.964844 Z M 64.601562 238.964844 "/>
<g style="fill:rgb(50%,50%,50%);fill-opacity:1;">
  <use xlink:href="#glyph0-32" x="75.289163" y="247.14599"/>
</g>
<g style="fill:rgb(50%,50%,50%);fill-opacity:1;">
  <use xlink:href="#glyph0-7" x="80.251739" y="247.14599"/>
  <use xlink:href="#glyph0-6" x="84.664242" y="247.14599"/>
</g>
<path style="fill:none;stroke-width:1.19553;stroke-linecap:butt;stroke-linejoin:miter;stroke:rgb(50%,50%,50%);stroke-opacity:1;stroke-miterlimit:10;" d="M -28.071691 -31.722598 L -81.211186 -31.722598 L -81.211186 8.549442 " transform="matrix(0.99664,0,0,-0.99664,117.207834,135.926964)"/>
<path style=" stroke:none;fill-rule:nonzero;fill:rgb(50%,50%,50%);fill-opacity:1;" d="M 36.269531 123.59375 C 35.953125 125.183594 35.316406 128.042969 33.886719 129.949219 C 35.636719 128.359375 36.90625 128.359375 38.652344 129.949219 C 37.222656 128.042969 36.589844 125.183594 36.269531 123.59375 Z M 36.269531 123.59375 "/>
<g style="fill:rgb(50%,50%,50%);fill-opacity:1;">
  <use xlink:href="#glyph0-11" x="57.511101" y="175.721796"/>
  <use xlink:href="#glyph0-13" x="63.027723" y="175.721796"/>
</g>
<path style="fill:none;stroke-width:1.19553;stroke-linecap:butt;stroke-linejoin:miter;stroke:rgb(50%,50%,50%);stroke-opacity:1;stroke-miterlimit:10;" d="M -63.028997 45.909353 L -21.424355 80.909772 " transform="matrix(0.99664,0,0,-0.99664,117.207834,135.926964)"/>
<path style=" stroke:none;fill-rule:nonzero;fill:rgb(50%,50%,50%);fill-opacity:1;" d="M 98.777344 52.832031 C 97.355469 53.613281 94.757812 54.96875 92.375 55.101562 C 94.71875 55.417969 95.535156 56.390625 95.445312 58.75 C 95.984375 56.429688 97.765625 54.097656 98.777344 52.832031 Z M 98.777344 52.832031 "/>
<path style="fill:none;stroke-width:1.19553;stroke-linecap:butt;stroke-linejoin:miter;stroke:rgb(50%,50%,50%);stroke-opacity:1;stroke-miterlimit:10;" d="M 29.590815 -103.385271 L 81.209575 -103.385271 L 81.209575 -53.710543 " transform="matrix(0.99664,0,0,-0.99664,117.207834,135.926964)"/>
<path style=" stroke:none;fill-rule:nonzero;fill:rgb(50%,50%,50%);fill-opacity:1;" d="M 198.144531 185.644531 C 197.828125 187.234375 197.191406 190.09375 195.761719 192 C 197.507812 190.410156 198.78125 190.410156 200.527344 192 C 199.097656 190.09375 198.460938 187.234375 198.144531 185.644531 Z M 198.144531 185.644531 "/>
<g style="fill:rgb(50%,50%,50%);fill-opacity:1;">
  <use xlink:href="#glyph0-11" x="167.181348" y="235.060735"/>
  <use xlink:href="#glyph0-13" x="172.69797" y="235.060735"/>
</g>
<path style="fill:none;stroke-width:1.19553;stroke-linecap:butt;stroke-linejoin:miter;stroke:rgb(50%,50%,50%);stroke-opacity:1;stroke-miterlimit:10;" d="M 81.209575 -13.560006 L 81.209575 8.549442 " transform="matrix(0.99664,0,0,-0.99664,117.207834,135.926964)"/>
<path style=" stroke:none;fill-rule:nonzero;fill:rgb(50%,50%,50%);fill-opacity:1;" d="M 198.144531 123.59375 C 197.828125 125.183594 197.191406 128.042969 195.761719 129.949219 C 197.507812 128.359375 198.78125 128.359375 200.527344 129.949219 C 199.097656 128.042969 198.460938 125.183594 198.144531 123.59375 Z M 198.144531 123.59375 "/>
<path style="fill:none;stroke-width:1.19553;stroke-linecap:butt;stroke-linejoin:miter;stroke:rgb(50%,50%,50%);stroke-opacity:1;stroke-miterlimit:10;" d="M 81.209575 48.856756 L 81.209575 98.931265 L 37.876469 98.931265 " transform="matrix(0.99664,0,0,-0.99664,117.207834,135.926964)"/>
<path style=" stroke:none;fill-rule:nonzero;fill:rgb(50%,50%,50%);fill-opacity:1;" d="M 151.140625 37.328125 C 152.730469 37.644531 155.589844 38.28125 157.496094 39.710938 C 155.910156 37.964844 155.910156 36.691406 157.496094 34.945312 C 155.589844 36.375 152.730469 37.011719 151.140625 37.328125 Z M 151.140625 37.328125 "/>
</g>
</svg>
