<?xml version="1.0" encoding="utf-8" standalone="no"?>
<!DOCTYPE svg PUBLIC "-//W3C//DTD SVG 1.1//EN"
  "http://www.w3.org/Graphics/SVG/1.1/DTD/svg11.dtd">
<!-- Created with matplotlib (https://matplotlib.org/) -->
<svg height="326.63325pt" version="1.1" viewBox="0 0 424.6075 326.63325" width="424.6075pt" xmlns="http://www.w3.org/2000/svg" xmlns:xlink="http://www.w3.org/1999/xlink">
 <defs>
  <style type="text/css">
*{stroke-linecap:butt;stroke-linejoin:round;}
  </style>
 </defs>
 <g id="figure_1">
  <g id="patch_1">
   <path d="M 0 326.63325 
L 424.6075 326.63325 
L 424.6075 0 
L 0 0 
z
" style="fill:none;"/>
  </g>
  <g id="axes_1">
   <g id="patch_2">
    <path d="M 56.7875 288.430125 
L 413.9075 288.430125 
L 413.9075 22.318125 
L 56.7875 22.318125 
z
" style="fill:none;"/>
   </g>
   <g id="matplotlib.axis_1">
    <g id="xtick_1">
     <g id="line2d_1">
      <path clip-path="url(#p2a2f0fb78e)" d="M 124.281471 288.430125 
L 124.281471 22.318125 
" style="fill:none;stroke:#b0b0b0;stroke-dasharray:0.8,1.32;stroke-dashoffset:0;stroke-width:0.8;"/>
     </g>
     <g id="line2d_2">
      <defs>
       <path d="M 0 0 
L 0 3.5 
" id="m7b1e02044b" style="stroke:#808080;stroke-width:0.8;"/>
      </defs>
      <g>
       <use style="fill:#808080;stroke:#808080;stroke-width:0.8;" x="124.281471" xlink:href="#m7b1e02044b" y="288.430125"/>
      </g>
     </g>
     <g id="text_1">
      <!-- 100 -->
      <defs>
       <path d="M 34.90625 0 
L 27 0 
L 27 50.875 
Q 27 57.234375 27.390625 62.890625 
Q 26.375 61.859375 25.09375 60.734375 
Q 23.828125 59.625 13.484375 51.21875 
L 9.1875 56.78125 
L 28.078125 71.390625 
L 34.90625 71.390625 
z
" id="OpenSans-49"/>
       <path d="M 52.203125 35.796875 
Q 52.203125 17.28125 46.359375 8.140625 
Q 40.53125 -0.984375 28.515625 -0.984375 
Q 17 -0.984375 10.984375 8.359375 
Q 4.984375 17.71875 4.984375 35.796875 
Q 4.984375 54.4375 10.796875 63.46875 
Q 16.609375 72.515625 28.515625 72.515625 
Q 40.140625 72.515625 46.171875 63.078125 
Q 52.203125 53.65625 52.203125 35.796875 
z
M 13.1875 35.796875 
Q 13.1875 20.21875 16.84375 13.109375 
Q 20.515625 6 28.515625 6 
Q 36.625 6 40.25 13.203125 
Q 43.890625 20.40625 43.890625 35.796875 
Q 43.890625 51.171875 40.25 58.328125 
Q 36.625 65.484375 28.515625 65.484375 
Q 20.515625 65.484375 16.84375 58.421875 
Q 13.1875 51.375 13.1875 35.796875 
z
" id="OpenSans-48"/>
      </defs>
      <g style="fill:#808080;" transform="translate(115.70569 303.028562)scale(0.1 -0.1)">
       <use xlink:href="#OpenSans-49"/>
       <use x="57.177734" xlink:href="#OpenSans-48"/>
       <use x="114.355469" xlink:href="#OpenSans-48"/>
      </g>
     </g>
    </g>
    <g id="xtick_2">
     <g id="line2d_3">
      <path clip-path="url(#p2a2f0fb78e)" d="M 192.629797 288.430125 
L 192.629797 22.318125 
" style="fill:none;stroke:#b0b0b0;stroke-dasharray:0.8,1.32;stroke-dashoffset:0;stroke-width:0.8;"/>
     </g>
     <g id="line2d_4">
      <g>
       <use style="fill:#808080;stroke:#808080;stroke-width:0.8;" x="192.629797" xlink:href="#m7b1e02044b" y="288.430125"/>
      </g>
     </g>
     <g id="text_2">
      <!-- 200 -->
      <defs>
       <path d="M 51.8125 0 
L 4.890625 0 
L 4.890625 6.984375 
L 23.6875 25.875 
Q 32.28125 34.578125 35.015625 38.28125 
Q 37.75 42 39.109375 45.515625 
Q 40.484375 49.03125 40.484375 53.078125 
Q 40.484375 58.796875 37.015625 62.140625 
Q 33.546875 65.484375 27.390625 65.484375 
Q 22.953125 65.484375 18.96875 64.015625 
Q 14.984375 62.546875 10.109375 58.6875 
L 5.8125 64.203125 
Q 15.671875 72.40625 27.296875 72.40625 
Q 37.359375 72.40625 43.0625 67.25 
Q 48.78125 62.109375 48.78125 53.421875 
Q 48.78125 46.625 44.96875 39.984375 
Q 41.15625 33.34375 30.71875 23.1875 
L 15.09375 7.90625 
L 15.09375 7.515625 
L 51.8125 7.515625 
z
" id="OpenSans-50"/>
      </defs>
      <g style="fill:#808080;" transform="translate(184.054015 303.028562)scale(0.1 -0.1)">
       <use xlink:href="#OpenSans-50"/>
       <use x="57.177734" xlink:href="#OpenSans-48"/>
       <use x="114.355469" xlink:href="#OpenSans-48"/>
      </g>
     </g>
    </g>
    <g id="xtick_3">
     <g id="line2d_5">
      <path clip-path="url(#p2a2f0fb78e)" d="M 260.978122 288.430125 
L 260.978122 22.318125 
" style="fill:none;stroke:#b0b0b0;stroke-dasharray:0.8,1.32;stroke-dashoffset:0;stroke-width:0.8;"/>
     </g>
     <g id="line2d_6">
      <g>
       <use style="fill:#808080;stroke:#808080;stroke-width:0.8;" x="260.978122" xlink:href="#m7b1e02044b" y="288.430125"/>
      </g>
     </g>
     <g id="text_3">
      <!-- 300 -->
      <defs>
       <path d="M 49.125 54.59375 
Q 49.125 47.75 45.28125 43.40625 
Q 41.453125 39.0625 34.421875 37.59375 
L 34.421875 37.203125 
Q 43.015625 36.140625 47.15625 31.734375 
Q 51.3125 27.34375 51.3125 20.21875 
Q 51.3125 10.015625 44.234375 4.515625 
Q 37.15625 -0.984375 24.125 -0.984375 
Q 18.453125 -0.984375 13.734375 -0.125 
Q 9.03125 0.734375 4.59375 2.875 
L 4.59375 10.59375 
Q 9.234375 8.296875 14.484375 7.09375 
Q 19.734375 5.90625 24.421875 5.90625 
Q 42.921875 5.90625 42.921875 20.40625 
Q 42.921875 33.40625 22.515625 33.40625 
L 15.484375 33.40625 
L 15.484375 40.375 
L 22.609375 40.375 
Q 30.953125 40.375 35.828125 44.0625 
Q 40.71875 47.75 40.71875 54.296875 
Q 40.71875 59.515625 37.125 62.5 
Q 33.546875 65.484375 27.390625 65.484375 
Q 22.703125 65.484375 18.546875 64.203125 
Q 14.40625 62.9375 9.078125 59.515625 
L 4.984375 64.984375 
Q 9.375 68.453125 15.109375 70.421875 
Q 20.84375 72.40625 27.203125 72.40625 
Q 37.59375 72.40625 43.359375 67.640625 
Q 49.125 62.890625 49.125 54.59375 
z
" id="OpenSans-51"/>
      </defs>
      <g style="fill:#808080;" transform="translate(252.402341 303.028562)scale(0.1 -0.1)">
       <use xlink:href="#OpenSans-51"/>
       <use x="57.177734" xlink:href="#OpenSans-48"/>
       <use x="114.355469" xlink:href="#OpenSans-48"/>
      </g>
     </g>
    </g>
    <g id="xtick_4">
     <g id="line2d_7">
      <path clip-path="url(#p2a2f0fb78e)" d="M 329.326447 288.430125 
L 329.326447 22.318125 
" style="fill:none;stroke:#b0b0b0;stroke-dasharray:0.8,1.32;stroke-dashoffset:0;stroke-width:0.8;"/>
     </g>
     <g id="line2d_8">
      <g>
       <use style="fill:#808080;stroke:#808080;stroke-width:0.8;" x="329.326447" xlink:href="#m7b1e02044b" y="288.430125"/>
      </g>
     </g>
     <g id="text_4">
      <!-- 400 -->
      <defs>
       <path d="M 55.171875 16.40625 
L 44.578125 16.40625 
L 44.578125 0 
L 36.8125 0 
L 36.8125 16.40625 
L 2.09375 16.40625 
L 2.09375 23.484375 
L 35.984375 71.78125 
L 44.578125 71.78125 
L 44.578125 23.78125 
L 55.171875 23.78125 
z
M 36.8125 23.78125 
L 36.8125 47.515625 
Q 36.8125 54.5 37.3125 63.28125 
L 36.921875 63.28125 
Q 34.578125 58.59375 32.515625 55.515625 
L 10.203125 23.78125 
z
" id="OpenSans-52"/>
      </defs>
      <g style="fill:#808080;" transform="translate(320.750666 303.028562)scale(0.1 -0.1)">
       <use xlink:href="#OpenSans-52"/>
       <use x="57.177734" xlink:href="#OpenSans-48"/>
       <use x="114.355469" xlink:href="#OpenSans-48"/>
      </g>
     </g>
    </g>
    <g id="xtick_5">
     <g id="line2d_9">
      <path clip-path="url(#p2a2f0fb78e)" d="M 397.674773 288.430125 
L 397.674773 22.318125 
" style="fill:none;stroke:#b0b0b0;stroke-dasharray:0.8,1.32;stroke-dashoffset:0;stroke-width:0.8;"/>
     </g>
     <g id="line2d_10">
      <g>
       <use style="fill:#808080;stroke:#808080;stroke-width:0.8;" x="397.674773" xlink:href="#m7b1e02044b" y="288.430125"/>
      </g>
     </g>
     <g id="text_5">
      <!-- 500 -->
      <defs>
       <path d="M 27.203125 43.609375 
Q 38.484375 43.609375 44.953125 38.015625 
Q 51.421875 32.421875 51.421875 22.703125 
Q 51.421875 11.625 44.359375 5.3125 
Q 37.3125 -0.984375 24.90625 -0.984375 
Q 12.84375 -0.984375 6.5 2.875 
L 6.5 10.6875 
Q 9.90625 8.5 14.984375 7.25 
Q 20.0625 6 25 6 
Q 33.59375 6 38.34375 10.046875 
Q 43.109375 14.109375 43.109375 21.78125 
Q 43.109375 36.71875 24.8125 36.71875 
Q 20.171875 36.71875 12.40625 35.296875 
L 8.203125 37.984375 
L 10.890625 71.390625 
L 46.390625 71.390625 
L 46.390625 63.921875 
L 17.828125 63.921875 
L 16.015625 42.484375 
Q 21.625 43.609375 27.203125 43.609375 
z
" id="OpenSans-53"/>
      </defs>
      <g style="fill:#808080;" transform="translate(389.098991 303.028562)scale(0.1 -0.1)">
       <use xlink:href="#OpenSans-53"/>
       <use x="57.177734" xlink:href="#OpenSans-48"/>
       <use x="114.355469" xlink:href="#OpenSans-48"/>
      </g>
     </g>
    </g>
    <g id="text_6">
     <!-- Scenarios -->
     <defs>
      <path d="M 50.09375 19 
Q 50.09375 9.578125 43.25 4.296875 
Q 36.421875 -0.984375 24.703125 -0.984375 
Q 12.015625 -0.984375 5.171875 2.296875 
L 5.171875 10.296875 
Q 9.578125 8.453125 14.75 7.375 
Q 19.921875 6.296875 25 6.296875 
Q 33.296875 6.296875 37.5 9.4375 
Q 41.703125 12.59375 41.703125 18.21875 
Q 41.703125 21.921875 40.203125 24.28125 
Q 38.71875 26.65625 35.21875 28.65625 
Q 31.734375 30.671875 24.609375 33.203125 
Q 14.65625 36.765625 10.375 41.640625 
Q 6.109375 46.53125 6.109375 54.390625 
Q 6.109375 62.640625 12.296875 67.515625 
Q 18.5 72.40625 28.71875 72.40625 
Q 39.359375 72.40625 48.296875 68.5 
L 45.703125 61.28125 
Q 36.859375 64.984375 28.515625 64.984375 
Q 21.921875 64.984375 18.203125 62.15625 
Q 14.5 59.328125 14.5 54.296875 
Q 14.5 50.59375 15.859375 48.21875 
Q 17.234375 45.84375 20.484375 43.859375 
Q 23.734375 41.890625 30.421875 39.5 
Q 41.65625 35.5 45.875 30.90625 
Q 50.09375 26.3125 50.09375 19 
z
" id="OpenSans-83"/>
      <path d="M 29.984375 -0.984375 
Q 18.359375 -0.984375 11.984375 6.171875 
Q 5.609375 13.328125 5.609375 26.421875 
Q 5.609375 39.84375 12.078125 47.171875 
Q 18.5625 54.5 30.515625 54.5 
Q 34.375 54.5 38.234375 53.65625 
Q 42.09375 52.828125 44.28125 51.703125 
L 41.796875 44.828125 
Q 39.109375 45.90625 35.9375 46.609375 
Q 32.765625 47.3125 30.328125 47.3125 
Q 14.015625 47.3125 14.015625 26.515625 
Q 14.015625 16.65625 17.984375 11.375 
Q 21.96875 6.109375 29.78125 6.109375 
Q 36.46875 6.109375 43.5 8.984375 
L 43.5 1.8125 
Q 38.140625 -0.984375 29.984375 -0.984375 
z
" id="OpenSans-99"/>
      <path d="M 31.203125 -0.984375 
Q 19.34375 -0.984375 12.46875 6.25 
Q 5.609375 13.484375 5.609375 26.3125 
Q 5.609375 39.265625 11.984375 46.875 
Q 18.359375 54.5 29.109375 54.5 
Q 39.15625 54.5 45.015625 47.875 
Q 50.875 41.265625 50.875 30.421875 
L 50.875 25.296875 
L 14.015625 25.296875 
Q 14.265625 15.875 18.78125 10.984375 
Q 23.296875 6.109375 31.5 6.109375 
Q 40.140625 6.109375 48.578125 9.71875 
L 48.578125 2.484375 
Q 44.28125 0.640625 40.453125 -0.171875 
Q 36.625 -0.984375 31.203125 -0.984375 
z
M 29 47.703125 
Q 22.5625 47.703125 18.71875 43.5 
Q 14.890625 39.3125 14.203125 31.890625 
L 42.1875 31.890625 
Q 42.1875 39.546875 38.765625 43.625 
Q 35.359375 47.703125 29 47.703125 
z
" id="OpenSans-101"/>
      <path d="M 45.21875 0 
L 45.21875 34.625 
Q 45.21875 41.15625 42.234375 44.375 
Q 39.265625 47.609375 32.90625 47.609375 
Q 24.515625 47.609375 20.609375 43.0625 
Q 16.703125 38.53125 16.703125 28.078125 
L 16.703125 0 
L 8.59375 0 
L 8.59375 53.515625 
L 15.1875 53.515625 
L 16.5 46.1875 
L 16.890625 46.1875 
Q 19.390625 50.140625 23.875 52.3125 
Q 28.375 54.5 33.890625 54.5 
Q 43.5625 54.5 48.4375 49.828125 
Q 53.328125 45.171875 53.328125 34.90625 
L 53.328125 0 
z
" id="OpenSans-110"/>
      <path d="M 41.5 0 
L 39.890625 7.625 
L 39.5 7.625 
Q 35.5 2.59375 31.515625 0.796875 
Q 27.546875 -0.984375 21.578125 -0.984375 
Q 13.625 -0.984375 9.109375 3.125 
Q 4.59375 7.234375 4.59375 14.796875 
Q 4.59375 31 30.515625 31.78125 
L 39.59375 32.078125 
L 39.59375 35.40625 
Q 39.59375 41.703125 36.890625 44.703125 
Q 34.1875 47.703125 28.21875 47.703125 
Q 21.53125 47.703125 13.09375 43.609375 
L 10.59375 49.8125 
Q 14.546875 51.953125 19.25 53.171875 
Q 23.96875 54.390625 28.71875 54.390625 
Q 38.28125 54.390625 42.890625 50.140625 
Q 47.515625 45.90625 47.515625 36.53125 
L 47.515625 0 
z
M 23.1875 5.71875 
Q 30.765625 5.71875 35.078125 9.859375 
Q 39.40625 14.015625 39.40625 21.484375 
L 39.40625 26.3125 
L 31.296875 25.984375 
Q 21.625 25.640625 17.359375 22.96875 
Q 13.09375 20.3125 13.09375 14.703125 
Q 13.09375 10.296875 15.75 8 
Q 18.40625 5.71875 23.1875 5.71875 
z
" id="OpenSans-97"/>
      <path d="M 33.015625 54.5 
Q 36.578125 54.5 39.40625 53.90625 
L 38.28125 46.390625 
Q 34.96875 47.125 32.421875 47.125 
Q 25.921875 47.125 21.3125 41.84375 
Q 16.703125 36.578125 16.703125 28.71875 
L 16.703125 0 
L 8.59375 0 
L 8.59375 53.515625 
L 15.28125 53.515625 
L 16.21875 43.609375 
L 16.609375 43.609375 
Q 19.578125 48.828125 23.78125 51.65625 
Q 27.984375 54.5 33.015625 54.5 
z
" id="OpenSans-114"/>
      <path d="M 16.703125 0 
L 8.59375 0 
L 8.59375 53.515625 
L 16.703125 53.515625 
z
M 7.90625 68.015625 
Q 7.90625 70.796875 9.265625 72.09375 
Q 10.640625 73.390625 12.703125 73.390625 
Q 14.65625 73.390625 16.0625 72.0625 
Q 17.484375 70.75 17.484375 68.015625 
Q 17.484375 65.28125 16.0625 63.9375 
Q 14.65625 62.59375 12.703125 62.59375 
Q 10.640625 62.59375 9.265625 63.9375 
Q 7.90625 65.28125 7.90625 68.015625 
z
" id="OpenSans-105"/>
      <path d="M 54.78125 26.8125 
Q 54.78125 13.71875 48.1875 6.359375 
Q 41.609375 -0.984375 29.984375 -0.984375 
Q 22.796875 -0.984375 17.234375 2.390625 
Q 11.671875 5.765625 8.640625 12.0625 
Q 5.609375 18.359375 5.609375 26.8125 
Q 5.609375 39.890625 12.15625 47.1875 
Q 18.703125 54.5 30.328125 54.5 
Q 41.546875 54.5 48.15625 47.015625 
Q 54.78125 39.546875 54.78125 26.8125 
z
M 14.015625 26.8125 
Q 14.015625 16.546875 18.109375 11.171875 
Q 22.21875 5.8125 30.171875 5.8125 
Q 38.140625 5.8125 42.265625 11.15625 
Q 46.390625 16.5 46.390625 26.8125 
Q 46.390625 37.015625 42.265625 42.3125 
Q 38.140625 47.609375 30.078125 47.609375 
Q 22.125 47.609375 18.0625 42.375 
Q 14.015625 37.15625 14.015625 26.8125 
z
" id="OpenSans-111"/>
      <path d="M 43.109375 14.59375 
Q 43.109375 7.125 37.546875 3.0625 
Q 31.984375 -0.984375 21.921875 -0.984375 
Q 11.28125 -0.984375 5.328125 2.390625 
L 5.328125 9.90625 
Q 9.1875 7.953125 13.59375 6.828125 
Q 18.015625 5.71875 22.125 5.71875 
Q 28.46875 5.71875 31.875 7.734375 
Q 35.296875 9.765625 35.296875 13.921875 
Q 35.296875 17.046875 32.59375 19.265625 
Q 29.890625 21.484375 22.015625 24.515625 
Q 14.546875 27.296875 11.390625 29.375 
Q 8.25 31.453125 6.703125 34.078125 
Q 5.171875 36.71875 5.171875 40.375 
Q 5.171875 46.921875 10.5 50.703125 
Q 15.828125 54.5 25.09375 54.5 
Q 33.734375 54.5 42 50.984375 
L 39.109375 44.390625 
Q 31.0625 47.703125 24.515625 47.703125 
Q 18.75 47.703125 15.8125 45.890625 
Q 12.890625 44.09375 12.890625 40.921875 
Q 12.890625 38.765625 13.984375 37.25 
Q 15.09375 35.75 17.53125 34.375 
Q 19.96875 33.015625 26.90625 30.421875 
Q 36.421875 26.953125 39.765625 23.4375 
Q 43.109375 19.921875 43.109375 14.59375 
z
" id="OpenSans-115"/>
     </defs>
     <g transform="translate(212.856094 317.030125)scale(0.1 -0.1)">
      <use xlink:href="#OpenSans-83"/>
      <use x="54.882812" xlink:href="#OpenSans-99"/>
      <use x="102.490234" xlink:href="#OpenSans-101"/>
      <use x="158.59375" xlink:href="#OpenSans-110"/>
      <use x="219.970703" xlink:href="#OpenSans-97"/>
      <use x="275.585938" xlink:href="#OpenSans-114"/>
      <use x="316.40625" xlink:href="#OpenSans-105"/>
      <use x="341.699219" xlink:href="#OpenSans-111"/>
      <use x="402.099609" xlink:href="#OpenSans-115"/>
     </g>
    </g>
   </g>
   <g id="matplotlib.axis_2">
    <g id="ytick_1">
     <g id="line2d_11">
      <path clip-path="url(#p2a2f0fb78e)" d="M 56.7875 276.565813 
L 413.9075 276.565813 
" style="fill:none;stroke:#b0b0b0;stroke-dasharray:0.8,1.32;stroke-dashoffset:0;stroke-width:0.8;"/>
     </g>
     <g id="line2d_12">
      <defs>
       <path d="M 0 0 
L -3.5 0 
" id="m9c3f1a0c28" style="stroke:#808080;stroke-width:0.8;"/>
      </defs>
      <g>
       <use style="fill:#808080;stroke:#808080;stroke-width:0.8;" x="56.7875" xlink:href="#m9c3f1a0c28" y="276.565813"/>
      </g>
     </g>
     <g id="text_7">
      <!-- 0 -->
      <g style="fill:#808080;" transform="translate(44.070312 280.365032)scale(0.1 -0.1)">
       <use xlink:href="#OpenSans-48"/>
      </g>
     </g>
    </g>
    <g id="ytick_2">
     <g id="line2d_13">
      <path clip-path="url(#p2a2f0fb78e)" d="M 56.7875 243.200538 
L 413.9075 243.200538 
" style="fill:none;stroke:#b0b0b0;stroke-dasharray:0.8,1.32;stroke-dashoffset:0;stroke-width:0.8;"/>
     </g>
     <g id="line2d_14">
      <g>
       <use style="fill:#808080;stroke:#808080;stroke-width:0.8;" x="56.7875" xlink:href="#m9c3f1a0c28" y="243.200538"/>
      </g>
     </g>
     <g id="text_8">
      <!-- 2500 -->
      <g style="fill:#808080;" transform="translate(26.91875 246.999757)scale(0.1 -0.1)">
       <use xlink:href="#OpenSans-50"/>
       <use x="57.177734" xlink:href="#OpenSans-53"/>
       <use x="114.355469" xlink:href="#OpenSans-48"/>
       <use x="171.533203" xlink:href="#OpenSans-48"/>
      </g>
     </g>
    </g>
    <g id="ytick_3">
     <g id="line2d_15">
      <path clip-path="url(#p2a2f0fb78e)" d="M 56.7875 209.835263 
L 413.9075 209.835263 
" style="fill:none;stroke:#b0b0b0;stroke-dasharray:0.8,1.32;stroke-dashoffset:0;stroke-width:0.8;"/>
     </g>
     <g id="line2d_16">
      <g>
       <use style="fill:#808080;stroke:#808080;stroke-width:0.8;" x="56.7875" xlink:href="#m9c3f1a0c28" y="209.835263"/>
      </g>
     </g>
     <g id="text_9">
      <!-- 5000 -->
      <g style="fill:#808080;" transform="translate(26.91875 213.634482)scale(0.1 -0.1)">
       <use xlink:href="#OpenSans-53"/>
       <use x="57.177734" xlink:href="#OpenSans-48"/>
       <use x="114.355469" xlink:href="#OpenSans-48"/>
       <use x="171.533203" xlink:href="#OpenSans-48"/>
      </g>
     </g>
    </g>
    <g id="ytick_4">
     <g id="line2d_17">
      <path clip-path="url(#p2a2f0fb78e)" d="M 56.7875 176.469988 
L 413.9075 176.469988 
" style="fill:none;stroke:#b0b0b0;stroke-dasharray:0.8,1.32;stroke-dashoffset:0;stroke-width:0.8;"/>
     </g>
     <g id="line2d_18">
      <g>
       <use style="fill:#808080;stroke:#808080;stroke-width:0.8;" x="56.7875" xlink:href="#m9c3f1a0c28" y="176.469988"/>
      </g>
     </g>
     <g id="text_10">
      <!-- 7500 -->
      <defs>
       <path d="M 13.921875 0 
L 43.5 63.921875 
L 4.59375 63.921875 
L 4.59375 71.390625 
L 52.09375 71.390625 
L 52.09375 64.890625 
L 22.90625 0 
z
" id="OpenSans-55"/>
      </defs>
      <g style="fill:#808080;" transform="translate(26.91875 180.269206)scale(0.1 -0.1)">
       <use xlink:href="#OpenSans-55"/>
       <use x="57.177734" xlink:href="#OpenSans-53"/>
       <use x="114.355469" xlink:href="#OpenSans-48"/>
       <use x="171.533203" xlink:href="#OpenSans-48"/>
      </g>
     </g>
    </g>
    <g id="ytick_5">
     <g id="line2d_19">
      <path clip-path="url(#p2a2f0fb78e)" d="M 56.7875 143.104712 
L 413.9075 143.104712 
" style="fill:none;stroke:#b0b0b0;stroke-dasharray:0.8,1.32;stroke-dashoffset:0;stroke-width:0.8;"/>
     </g>
     <g id="line2d_20">
      <g>
       <use style="fill:#808080;stroke:#808080;stroke-width:0.8;" x="56.7875" xlink:href="#m9c3f1a0c28" y="143.104712"/>
      </g>
     </g>
     <g id="text_11">
      <!-- 10000 -->
      <g style="fill:#808080;" transform="translate(21.201563 146.903931)scale(0.1 -0.1)">
       <use xlink:href="#OpenSans-49"/>
       <use x="57.177734" xlink:href="#OpenSans-48"/>
       <use x="114.355469" xlink:href="#OpenSans-48"/>
       <use x="171.533203" xlink:href="#OpenSans-48"/>
       <use x="228.710938" xlink:href="#OpenSans-48"/>
      </g>
     </g>
    </g>
    <g id="ytick_6">
     <g id="line2d_21">
      <path clip-path="url(#p2a2f0fb78e)" d="M 56.7875 109.739437 
L 413.9075 109.739437 
" style="fill:none;stroke:#b0b0b0;stroke-dasharray:0.8,1.32;stroke-dashoffset:0;stroke-width:0.8;"/>
     </g>
     <g id="line2d_22">
      <g>
       <use style="fill:#808080;stroke:#808080;stroke-width:0.8;" x="56.7875" xlink:href="#m9c3f1a0c28" y="109.739437"/>
      </g>
     </g>
     <g id="text_12">
      <!-- 12500 -->
      <g style="fill:#808080;" transform="translate(21.201563 113.538656)scale(0.1 -0.1)">
       <use xlink:href="#OpenSans-49"/>
       <use x="57.177734" xlink:href="#OpenSans-50"/>
       <use x="114.355469" xlink:href="#OpenSans-53"/>
       <use x="171.533203" xlink:href="#OpenSans-48"/>
       <use x="228.710938" xlink:href="#OpenSans-48"/>
      </g>
     </g>
    </g>
    <g id="ytick_7">
     <g id="line2d_23">
      <path clip-path="url(#p2a2f0fb78e)" d="M 56.7875 76.374162 
L 413.9075 76.374162 
" style="fill:none;stroke:#b0b0b0;stroke-dasharray:0.8,1.32;stroke-dashoffset:0;stroke-width:0.8;"/>
     </g>
     <g id="line2d_24">
      <g>
       <use style="fill:#808080;stroke:#808080;stroke-width:0.8;" x="56.7875" xlink:href="#m9c3f1a0c28" y="76.374162"/>
      </g>
     </g>
     <g id="text_13">
      <!-- 15000 -->
      <g style="fill:#808080;" transform="translate(21.201563 80.17338)scale(0.1 -0.1)">
       <use xlink:href="#OpenSans-49"/>
       <use x="57.177734" xlink:href="#OpenSans-53"/>
       <use x="114.355469" xlink:href="#OpenSans-48"/>
       <use x="171.533203" xlink:href="#OpenSans-48"/>
       <use x="228.710938" xlink:href="#OpenSans-48"/>
      </g>
     </g>
    </g>
    <g id="ytick_8">
     <g id="line2d_25">
      <path clip-path="url(#p2a2f0fb78e)" d="M 56.7875 43.008886 
L 413.9075 43.008886 
" style="fill:none;stroke:#b0b0b0;stroke-dasharray:0.8,1.32;stroke-dashoffset:0;stroke-width:0.8;"/>
     </g>
     <g id="line2d_26">
      <g>
       <use style="fill:#808080;stroke:#808080;stroke-width:0.8;" x="56.7875" xlink:href="#m9c3f1a0c28" y="43.008886"/>
      </g>
     </g>
     <g id="text_14">
      <!-- 17500 -->
      <g style="fill:#808080;" transform="translate(21.201563 46.808105)scale(0.1 -0.1)">
       <use xlink:href="#OpenSans-49"/>
       <use x="57.177734" xlink:href="#OpenSans-55"/>
       <use x="114.355469" xlink:href="#OpenSans-53"/>
       <use x="171.533203" xlink:href="#OpenSans-48"/>
       <use x="228.710938" xlink:href="#OpenSans-48"/>
      </g>
     </g>
    </g>
    <g id="text_15">
     <!-- Time (s) -->
     <defs>
      <path d="M 31.78125 0 
L 23.484375 0 
L 23.484375 64.015625 
L 0.875 64.015625 
L 0.875 71.390625 
L 54.390625 71.390625 
L 54.390625 64.015625 
L 31.78125 64.015625 
z
" id="OpenSans-84"/>
      <path d="M 76.8125 0 
L 76.8125 34.8125 
Q 76.8125 41.21875 74.078125 44.40625 
Q 71.34375 47.609375 65.578125 47.609375 
Q 58.015625 47.609375 54.390625 43.265625 
Q 50.78125 38.921875 50.78125 29.890625 
L 50.78125 0 
L 42.671875 0 
L 42.671875 34.8125 
Q 42.671875 41.21875 39.9375 44.40625 
Q 37.203125 47.609375 31.390625 47.609375 
Q 23.78125 47.609375 20.234375 43.046875 
Q 16.703125 38.484375 16.703125 28.078125 
L 16.703125 0 
L 8.59375 0 
L 8.59375 53.515625 
L 15.1875 53.515625 
L 16.5 46.1875 
L 16.890625 46.1875 
Q 19.1875 50.09375 23.359375 52.296875 
Q 27.546875 54.5 32.71875 54.5 
Q 45.265625 54.5 49.125 45.40625 
L 49.515625 45.40625 
Q 51.90625 49.609375 56.4375 52.046875 
Q 60.984375 54.5 66.796875 54.5 
Q 75.875 54.5 80.390625 49.828125 
Q 84.90625 45.171875 84.90625 34.90625 
L 84.90625 0 
z
" id="OpenSans-109"/>
      <path id="OpenSans-32"/>
      <path d="M 4 27.390625 
Q 4 40.328125 7.78125 51.609375 
Q 11.578125 62.890625 18.703125 71.390625 
L 26.609375 71.390625 
Q 19.578125 61.96875 16.03125 50.6875 
Q 12.5 39.40625 12.5 27.484375 
Q 12.5 15.765625 16.109375 4.578125 
Q 19.734375 -6.59375 26.515625 -15.828125 
L 18.703125 -15.828125 
Q 11.53125 -7.515625 7.765625 3.5625 
Q 4 14.65625 4 27.390625 
z
" id="OpenSans-40"/>
      <path d="M 25.59375 27.390625 
Q 25.59375 14.546875 21.796875 3.453125 
Q 18.015625 -7.625 10.890625 -15.828125 
L 3.078125 -15.828125 
Q 9.859375 -6.640625 13.46875 4.5625 
Q 17.09375 15.765625 17.09375 27.484375 
Q 17.09375 39.40625 13.546875 50.6875 
Q 10.015625 61.96875 2.984375 71.390625 
L 10.890625 71.390625 
Q 18.0625 62.84375 21.828125 51.53125 
Q 25.59375 40.234375 25.59375 27.390625 
z
" id="OpenSans-41"/>
     </defs>
     <g transform="translate(14.798438 173.505375)rotate(-90)scale(0.1 -0.1)">
      <use xlink:href="#OpenSans-84"/>
      <use x="55.322266" xlink:href="#OpenSans-105"/>
      <use x="80.615234" xlink:href="#OpenSans-109"/>
      <use x="173.632812" xlink:href="#OpenSans-101"/>
      <use x="229.736328" xlink:href="#OpenSans-32"/>
      <use x="255.712891" xlink:href="#OpenSans-40"/>
      <use x="285.302734" xlink:href="#OpenSans-115"/>
      <use x="333.007812" xlink:href="#OpenSans-41"/>
     </g>
    </g>
   </g>
   <g id="line2d_27">
    <path clip-path="url(#p2a2f0fb78e)" d="M 73.020227 275.835247 
L 90.107309 275.206112 
L 107.19439 274.777568 
L 124.281471 274.30258 
L 141.368553 273.838002 
L 158.455634 273.131459 
L 175.542715 272.92406 
" style="fill:none;stroke:#1b9e77;stroke-linecap:square;stroke-width:2;"/>
    <defs>
     <path d="M -1 3 
L 1 3 
L 1 1 
L 3 1 
L 3 -1 
L 1 -1 
L 1 -3 
L -1 -3 
L -1 -1 
L -3 -1 
L -3 1 
L -1 1 
z
" id="mdb5b16ce30" style="stroke:#1b9e77;stroke-linejoin:miter;"/>
    </defs>
    <g clip-path="url(#p2a2f0fb78e)">
     <use style="fill:#1b9e77;stroke:#1b9e77;stroke-linejoin:miter;" x="73.020227" xlink:href="#mdb5b16ce30" y="275.835247"/>
     <use style="fill:#1b9e77;stroke:#1b9e77;stroke-linejoin:miter;" x="90.107309" xlink:href="#mdb5b16ce30" y="275.206112"/>
     <use style="fill:#1b9e77;stroke:#1b9e77;stroke-linejoin:miter;" x="107.19439" xlink:href="#mdb5b16ce30" y="274.777568"/>
     <use style="fill:#1b9e77;stroke:#1b9e77;stroke-linejoin:miter;" x="124.281471" xlink:href="#mdb5b16ce30" y="274.30258"/>
     <use style="fill:#1b9e77;stroke:#1b9e77;stroke-linejoin:miter;" x="141.368553" xlink:href="#mdb5b16ce30" y="273.838002"/>
     <use style="fill:#1b9e77;stroke:#1b9e77;stroke-linejoin:miter;" x="158.455634" xlink:href="#mdb5b16ce30" y="273.131459"/>
     <use style="fill:#1b9e77;stroke:#1b9e77;stroke-linejoin:miter;" x="175.542715" xlink:href="#mdb5b16ce30" y="272.92406"/>
    </g>
   </g>
   <g id="line2d_28">
    <path clip-path="url(#p2a2f0fb78e)" d="M 73.020227 253.948161 
L 90.107309 174.695088 
L 107.19439 148.499077 
L 124.281471 119.597942 
L 141.368553 86.872612 
L 158.455634 64.748632 
L 175.542715 34.414125 
" style="fill:none;stroke:#1b9e77;stroke-dasharray:2,3.3;stroke-dashoffset:0;stroke-width:2;"/>
    <defs>
     <path d="M -0.666667 2 
L 0.666667 2 
L 0.666667 0.666667 
L 2 0.666667 
L 2 -0.666667 
L 0.666667 -0.666667 
L 0.666667 -2 
L -0.666667 -2 
L -0.666667 -0.666667 
L -2 -0.666667 
L -2 0.666667 
L -0.666667 0.666667 
z
" id="m3a79054600" style="stroke:#1b9e77;stroke-linejoin:miter;"/>
    </defs>
    <g clip-path="url(#p2a2f0fb78e)">
     <use style="fill:#1b9e77;stroke:#1b9e77;stroke-linejoin:miter;" x="73.020227" xlink:href="#m3a79054600" y="253.948161"/>
     <use style="fill:#1b9e77;stroke:#1b9e77;stroke-linejoin:miter;" x="90.107309" xlink:href="#m3a79054600" y="174.695088"/>
     <use style="fill:#1b9e77;stroke:#1b9e77;stroke-linejoin:miter;" x="107.19439" xlink:href="#m3a79054600" y="148.499077"/>
     <use style="fill:#1b9e77;stroke:#1b9e77;stroke-linejoin:miter;" x="124.281471" xlink:href="#m3a79054600" y="119.597942"/>
     <use style="fill:#1b9e77;stroke:#1b9e77;stroke-linejoin:miter;" x="141.368553" xlink:href="#m3a79054600" y="86.872612"/>
     <use style="fill:#1b9e77;stroke:#1b9e77;stroke-linejoin:miter;" x="158.455634" xlink:href="#m3a79054600" y="64.748632"/>
     <use style="fill:#1b9e77;stroke:#1b9e77;stroke-linejoin:miter;" x="175.542715" xlink:href="#m3a79054600" y="34.414125"/>
    </g>
   </g>
   <g id="line2d_29">
    <path clip-path="url(#p2a2f0fb78e)" d="M 73.020227 276.334125 
L 90.107309 276.089758 
L 107.19439 275.768917 
L 124.281471 275.561919 
L 141.368553 275.79601 
L 158.455634 275.519078 
L 175.542715 275.390955 
L 192.629797 275.265102 
L 209.716878 275.059838 
L 226.803959 274.908494 
L 243.891041 274.766758 
L 260.978122 274.546147 
L 278.065203 274.392933 
L 295.152285 274.202484 
L 312.239366 274.173256 
L 329.326447 273.972397 
L 346.413529 273.735104 
L 363.50061 273.576685 
L 380.587691 273.228886 
L 397.674773 272.949952 
" style="fill:none;stroke:#d95f02;stroke-linecap:square;stroke-width:2;"/>
    <defs>
     <path d="M -0 3.535534 
L 3.535534 0 
L 0 -3.535534 
L -3.535534 -0 
z
" id="ma0abc787eb" style="stroke:#d95f02;stroke-linejoin:miter;"/>
    </defs>
    <g clip-path="url(#p2a2f0fb78e)">
     <use style="fill:#d95f02;stroke:#d95f02;stroke-linejoin:miter;" x="73.020227" xlink:href="#ma0abc787eb" y="276.334125"/>
     <use style="fill:#d95f02;stroke:#d95f02;stroke-linejoin:miter;" x="90.107309" xlink:href="#ma0abc787eb" y="276.089758"/>
     <use style="fill:#d95f02;stroke:#d95f02;stroke-linejoin:miter;" x="107.19439" xlink:href="#ma0abc787eb" y="275.768917"/>
     <use style="fill:#d95f02;stroke:#d95f02;stroke-linejoin:miter;" x="124.281471" xlink:href="#ma0abc787eb" y="275.561919"/>
     <use style="fill:#d95f02;stroke:#d95f02;stroke-linejoin:miter;" x="141.368553" xlink:href="#ma0abc787eb" y="275.79601"/>
     <use style="fill:#d95f02;stroke:#d95f02;stroke-linejoin:miter;" x="158.455634" xlink:href="#ma0abc787eb" y="275.519078"/>
     <use style="fill:#d95f02;stroke:#d95f02;stroke-linejoin:miter;" x="175.542715" xlink:href="#ma0abc787eb" y="275.390955"/>
     <use style="fill:#d95f02;stroke:#d95f02;stroke-linejoin:miter;" x="192.629797" xlink:href="#ma0abc787eb" y="275.265102"/>
     <use style="fill:#d95f02;stroke:#d95f02;stroke-linejoin:miter;" x="209.716878" xlink:href="#ma0abc787eb" y="275.059838"/>
     <use style="fill:#d95f02;stroke:#d95f02;stroke-linejoin:miter;" x="226.803959" xlink:href="#ma0abc787eb" y="274.908494"/>
     <use style="fill:#d95f02;stroke:#d95f02;stroke-linejoin:miter;" x="243.891041" xlink:href="#ma0abc787eb" y="274.766758"/>
     <use style="fill:#d95f02;stroke:#d95f02;stroke-linejoin:miter;" x="260.978122" xlink:href="#ma0abc787eb" y="274.546147"/>
     <use style="fill:#d95f02;stroke:#d95f02;stroke-linejoin:miter;" x="278.065203" xlink:href="#ma0abc787eb" y="274.392933"/>
     <use style="fill:#d95f02;stroke:#d95f02;stroke-linejoin:miter;" x="295.152285" xlink:href="#ma0abc787eb" y="274.202484"/>
     <use style="fill:#d95f02;stroke:#d95f02;stroke-linejoin:miter;" x="312.239366" xlink:href="#ma0abc787eb" y="274.173256"/>
     <use style="fill:#d95f02;stroke:#d95f02;stroke-linejoin:miter;" x="329.326447" xlink:href="#ma0abc787eb" y="273.972397"/>
     <use style="fill:#d95f02;stroke:#d95f02;stroke-linejoin:miter;" x="346.413529" xlink:href="#ma0abc787eb" y="273.735104"/>
     <use style="fill:#d95f02;stroke:#d95f02;stroke-linejoin:miter;" x="363.50061" xlink:href="#ma0abc787eb" y="273.576685"/>
     <use style="fill:#d95f02;stroke:#d95f02;stroke-linejoin:miter;" x="380.587691" xlink:href="#ma0abc787eb" y="273.228886"/>
     <use style="fill:#d95f02;stroke:#d95f02;stroke-linejoin:miter;" x="397.674773" xlink:href="#ma0abc787eb" y="272.949952"/>
    </g>
   </g>
   <g id="line2d_30">
    <path clip-path="url(#p2a2f0fb78e)" d="M 73.020227 264.935212 
L 90.107309 245.06846 
L 107.19439 226.714889 
L 124.281471 223.964256 
L 141.368553 245.576546 
L 158.455634 213.400142 
L 175.542715 212.267458 
L 192.629797 198.72863 
L 209.716878 183.724933 
L 226.803959 179.719632 
L 243.891041 181.01594 
L 260.978122 162.662369 
L 278.065203 171.483614 
L 295.152285 145.582685 
L 312.239366 164.895307 
L 329.326447 128.467233 
L 346.413529 92.083868 
L 363.50061 89.614304 
L 380.587691 76.783487 
L 397.674773 68.126533 
" style="fill:none;stroke:#d95f02;stroke-dasharray:2,3.3;stroke-dashoffset:0;stroke-width:2;"/>
    <g clip-path="url(#p2a2f0fb78e)">
     <use style="fill:#d95f02;stroke:#d95f02;stroke-linejoin:miter;" x="73.020227" xlink:href="#ma0abc787eb" y="264.935212"/>
     <use style="fill:#d95f02;stroke:#d95f02;stroke-linejoin:miter;" x="90.107309" xlink:href="#ma0abc787eb" y="245.06846"/>
     <use style="fill:#d95f02;stroke:#d95f02;stroke-linejoin:miter;" x="107.19439" xlink:href="#ma0abc787eb" y="226.714889"/>
     <use style="fill:#d95f02;stroke:#d95f02;stroke-linejoin:miter;" x="124.281471" xlink:href="#ma0abc787eb" y="223.964256"/>
     <use style="fill:#d95f02;stroke:#d95f02;stroke-linejoin:miter;" x="141.368553" xlink:href="#ma0abc787eb" y="245.576546"/>
     <use style="fill:#d95f02;stroke:#d95f02;stroke-linejoin:miter;" x="158.455634" xlink:href="#ma0abc787eb" y="213.400142"/>
     <use style="fill:#d95f02;stroke:#d95f02;stroke-linejoin:miter;" x="175.542715" xlink:href="#ma0abc787eb" y="212.267458"/>
     <use style="fill:#d95f02;stroke:#d95f02;stroke-linejoin:miter;" x="192.629797" xlink:href="#ma0abc787eb" y="198.72863"/>
     <use style="fill:#d95f02;stroke:#d95f02;stroke-linejoin:miter;" x="209.716878" xlink:href="#ma0abc787eb" y="183.724933"/>
     <use style="fill:#d95f02;stroke:#d95f02;stroke-linejoin:miter;" x="226.803959" xlink:href="#ma0abc787eb" y="179.719632"/>
     <use style="fill:#d95f02;stroke:#d95f02;stroke-linejoin:miter;" x="243.891041" xlink:href="#ma0abc787eb" y="181.01594"/>
     <use style="fill:#d95f02;stroke:#d95f02;stroke-linejoin:miter;" x="260.978122" xlink:href="#ma0abc787eb" y="162.662369"/>
     <use style="fill:#d95f02;stroke:#d95f02;stroke-linejoin:miter;" x="278.065203" xlink:href="#ma0abc787eb" y="171.483614"/>
     <use style="fill:#d95f02;stroke:#d95f02;stroke-linejoin:miter;" x="295.152285" xlink:href="#ma0abc787eb" y="145.582685"/>
     <use style="fill:#d95f02;stroke:#d95f02;stroke-linejoin:miter;" x="312.239366" xlink:href="#ma0abc787eb" y="164.895307"/>
     <use style="fill:#d95f02;stroke:#d95f02;stroke-linejoin:miter;" x="329.326447" xlink:href="#ma0abc787eb" y="128.467233"/>
     <use style="fill:#d95f02;stroke:#d95f02;stroke-linejoin:miter;" x="346.413529" xlink:href="#ma0abc787eb" y="92.083868"/>
     <use style="fill:#d95f02;stroke:#d95f02;stroke-linejoin:miter;" x="363.50061" xlink:href="#ma0abc787eb" y="89.614304"/>
     <use style="fill:#d95f02;stroke:#d95f02;stroke-linejoin:miter;" x="380.587691" xlink:href="#ma0abc787eb" y="76.783487"/>
     <use style="fill:#d95f02;stroke:#d95f02;stroke-linejoin:miter;" x="397.674773" xlink:href="#ma0abc787eb" y="68.126533"/>
    </g>
   </g>
   <g id="line2d_31">
    <path clip-path="url(#p2a2f0fb78e)" d="M 73.020227 276.093895 
L 90.107309 275.540432 
L 107.19439 274.922507 
L 124.281471 274.555489 
L 141.368553 274.741267 
L 158.455634 274.090244 
L 175.542715 273.664903 
L 192.629797 273.335788 
L 209.716878 272.787129 
L 226.803959 272.628177 
L 243.891041 272.262093 
L 260.978122 271.723578 
L 278.065203 271.864246 
L 295.152285 271.018636 
L 312.239366 271.356426 
L 329.326447 270.922277 
L 346.413529 269.391879 
L 363.50061 269.373328 
L 380.587691 269.003374 
L 397.674773 268.636356 
" style="fill:none;stroke:#7570b3;stroke-linecap:square;stroke-width:2;"/>
    <defs>
     <path d="M 0 -3 
L -3 3 
L 3 3 
z
" id="m79567fa07c" style="stroke:#7570b3;stroke-linejoin:miter;"/>
    </defs>
    <g clip-path="url(#p2a2f0fb78e)">
     <use style="fill:#7570b3;stroke:#7570b3;stroke-linejoin:miter;" x="73.020227" xlink:href="#m79567fa07c" y="276.093895"/>
     <use style="fill:#7570b3;stroke:#7570b3;stroke-linejoin:miter;" x="90.107309" xlink:href="#m79567fa07c" y="275.540432"/>
     <use style="fill:#7570b3;stroke:#7570b3;stroke-linejoin:miter;" x="107.19439" xlink:href="#m79567fa07c" y="274.922507"/>
     <use style="fill:#7570b3;stroke:#7570b3;stroke-linejoin:miter;" x="124.281471" xlink:href="#m79567fa07c" y="274.555489"/>
     <use style="fill:#7570b3;stroke:#7570b3;stroke-linejoin:miter;" x="141.368553" xlink:href="#m79567fa07c" y="274.741267"/>
     <use style="fill:#7570b3;stroke:#7570b3;stroke-linejoin:miter;" x="158.455634" xlink:href="#m79567fa07c" y="274.090244"/>
     <use style="fill:#7570b3;stroke:#7570b3;stroke-linejoin:miter;" x="175.542715" xlink:href="#m79567fa07c" y="273.664903"/>
     <use style="fill:#7570b3;stroke:#7570b3;stroke-linejoin:miter;" x="192.629797" xlink:href="#m79567fa07c" y="273.335788"/>
     <use style="fill:#7570b3;stroke:#7570b3;stroke-linejoin:miter;" x="209.716878" xlink:href="#m79567fa07c" y="272.787129"/>
     <use style="fill:#7570b3;stroke:#7570b3;stroke-linejoin:miter;" x="226.803959" xlink:href="#m79567fa07c" y="272.628177"/>
     <use style="fill:#7570b3;stroke:#7570b3;stroke-linejoin:miter;" x="243.891041" xlink:href="#m79567fa07c" y="272.262093"/>
     <use style="fill:#7570b3;stroke:#7570b3;stroke-linejoin:miter;" x="260.978122" xlink:href="#m79567fa07c" y="271.723578"/>
     <use style="fill:#7570b3;stroke:#7570b3;stroke-linejoin:miter;" x="278.065203" xlink:href="#m79567fa07c" y="271.864246"/>
     <use style="fill:#7570b3;stroke:#7570b3;stroke-linejoin:miter;" x="295.152285" xlink:href="#m79567fa07c" y="271.018636"/>
     <use style="fill:#7570b3;stroke:#7570b3;stroke-linejoin:miter;" x="312.239366" xlink:href="#m79567fa07c" y="271.356426"/>
     <use style="fill:#7570b3;stroke:#7570b3;stroke-linejoin:miter;" x="329.326447" xlink:href="#m79567fa07c" y="270.922277"/>
     <use style="fill:#7570b3;stroke:#7570b3;stroke-linejoin:miter;" x="346.413529" xlink:href="#m79567fa07c" y="269.391879"/>
     <use style="fill:#7570b3;stroke:#7570b3;stroke-linejoin:miter;" x="363.50061" xlink:href="#m79567fa07c" y="269.373328"/>
     <use style="fill:#7570b3;stroke:#7570b3;stroke-linejoin:miter;" x="380.587691" xlink:href="#m79567fa07c" y="269.003374"/>
     <use style="fill:#7570b3;stroke:#7570b3;stroke-linejoin:miter;" x="397.674773" xlink:href="#m79567fa07c" y="268.636356"/>
    </g>
   </g>
   <g id="line2d_32">
    <path clip-path="url(#p2a2f0fb78e)" d="M 73.020227 271.463596 
L 90.107309 267.238484 
L 107.19439 260.378183 
L 124.281471 260.841693 
L 141.368553 268.774621 
L 158.455634 264.709663 
L 175.542715 261.927266 
L 192.629797 258.057295 
L 209.716878 242.62759 
L 226.803959 253.960439 
L 243.891041 253.874624 
L 260.978122 250.072984 
L 278.065203 251.893394 
L 295.152285 245.424801 
L 312.239366 252.209163 
L 329.326447 249.763888 
L 346.413529 236.789334 
L 363.50061 234.72736 
L 380.587691 232.779495 
L 397.674773 231.1486 
" style="fill:none;stroke:#7570b3;stroke-dasharray:2,3.3;stroke-dashoffset:0;stroke-width:2;"/>
    <defs>
     <path d="M 0 -2 
L -2 2 
L 2 2 
z
" id="md49702558d" style="stroke:#7570b3;stroke-linejoin:miter;"/>
    </defs>
    <g clip-path="url(#p2a2f0fb78e)">
     <use style="fill:#7570b3;stroke:#7570b3;stroke-linejoin:miter;" x="73.020227" xlink:href="#md49702558d" y="271.463596"/>
     <use style="fill:#7570b3;stroke:#7570b3;stroke-linejoin:miter;" x="90.107309" xlink:href="#md49702558d" y="267.238484"/>
     <use style="fill:#7570b3;stroke:#7570b3;stroke-linejoin:miter;" x="107.19439" xlink:href="#md49702558d" y="260.378183"/>
     <use style="fill:#7570b3;stroke:#7570b3;stroke-linejoin:miter;" x="124.281471" xlink:href="#md49702558d" y="260.841693"/>
     <use style="fill:#7570b3;stroke:#7570b3;stroke-linejoin:miter;" x="141.368553" xlink:href="#md49702558d" y="268.774621"/>
     <use style="fill:#7570b3;stroke:#7570b3;stroke-linejoin:miter;" x="158.455634" xlink:href="#md49702558d" y="264.709663"/>
     <use style="fill:#7570b3;stroke:#7570b3;stroke-linejoin:miter;" x="175.542715" xlink:href="#md49702558d" y="261.927266"/>
     <use style="fill:#7570b3;stroke:#7570b3;stroke-linejoin:miter;" x="192.629797" xlink:href="#md49702558d" y="258.057295"/>
     <use style="fill:#7570b3;stroke:#7570b3;stroke-linejoin:miter;" x="209.716878" xlink:href="#md49702558d" y="242.62759"/>
     <use style="fill:#7570b3;stroke:#7570b3;stroke-linejoin:miter;" x="226.803959" xlink:href="#md49702558d" y="253.960439"/>
     <use style="fill:#7570b3;stroke:#7570b3;stroke-linejoin:miter;" x="243.891041" xlink:href="#md49702558d" y="253.874624"/>
     <use style="fill:#7570b3;stroke:#7570b3;stroke-linejoin:miter;" x="260.978122" xlink:href="#md49702558d" y="250.072984"/>
     <use style="fill:#7570b3;stroke:#7570b3;stroke-linejoin:miter;" x="278.065203" xlink:href="#md49702558d" y="251.893394"/>
     <use style="fill:#7570b3;stroke:#7570b3;stroke-linejoin:miter;" x="295.152285" xlink:href="#md49702558d" y="245.424801"/>
     <use style="fill:#7570b3;stroke:#7570b3;stroke-linejoin:miter;" x="312.239366" xlink:href="#md49702558d" y="252.209163"/>
     <use style="fill:#7570b3;stroke:#7570b3;stroke-linejoin:miter;" x="329.326447" xlink:href="#md49702558d" y="249.763888"/>
     <use style="fill:#7570b3;stroke:#7570b3;stroke-linejoin:miter;" x="346.413529" xlink:href="#md49702558d" y="236.789334"/>
     <use style="fill:#7570b3;stroke:#7570b3;stroke-linejoin:miter;" x="363.50061" xlink:href="#md49702558d" y="234.72736"/>
     <use style="fill:#7570b3;stroke:#7570b3;stroke-linejoin:miter;" x="380.587691" xlink:href="#md49702558d" y="232.779495"/>
     <use style="fill:#7570b3;stroke:#7570b3;stroke-linejoin:miter;" x="397.674773" xlink:href="#md49702558d" y="231.1486"/>
    </g>
   </g>
   <g id="patch_3">
    <path d="M 56.7875 288.430125 
L 56.7875 22.318125 
" style="fill:none;stroke:#808080;stroke-linecap:square;stroke-linejoin:miter;stroke-width:0.8;"/>
   </g>
   <g id="patch_4">
    <path d="M 413.9075 288.430125 
L 413.9075 22.318125 
" style="fill:none;stroke:#808080;stroke-linecap:square;stroke-linejoin:miter;stroke-width:0.8;"/>
   </g>
   <g id="patch_5">
    <path d="M 56.7875 288.430125 
L 413.9075 288.430125 
" style="fill:none;stroke:#808080;stroke-linecap:square;stroke-linejoin:miter;stroke-width:0.8;"/>
   </g>
   <g id="patch_6">
    <path d="M 56.7875 22.318125 
L 413.9075 22.318125 
" style="fill:none;stroke:#808080;stroke-linecap:square;stroke-linejoin:miter;stroke-width:0.8;"/>
   </g>
   <g id="text_16">
    <!-- Instance: fri26 -->
    <defs>
     <path d="M 9.8125 0 
L 9.8125 71.390625 
L 18.109375 71.390625 
L 18.109375 0 
z
" id="OpenSans-73"/>
     <path d="M 25.875 5.71875 
Q 28.03125 5.71875 30.03125 6.03125 
Q 32.03125 6.34375 33.203125 6.6875 
L 33.203125 0.484375 
Q 31.890625 -0.140625 29.328125 -0.5625 
Q 26.765625 -0.984375 24.703125 -0.984375 
Q 9.1875 -0.984375 9.1875 15.375 
L 9.1875 47.21875 
L 1.515625 47.21875 
L 1.515625 51.125 
L 9.1875 54.5 
L 12.59375 65.921875 
L 17.28125 65.921875 
L 17.28125 53.515625 
L 32.8125 53.515625 
L 32.8125 47.21875 
L 17.28125 47.21875 
L 17.28125 15.71875 
Q 17.28125 10.890625 19.578125 8.296875 
Q 21.875 5.71875 25.875 5.71875 
z
" id="OpenSans-116"/>
     <path d="M 7.421875 5.171875 
Q 7.421875 8.453125 8.90625 10.125 
Q 10.40625 11.8125 13.1875 11.8125 
Q 16.015625 11.8125 17.59375 10.125 
Q 19.1875 8.453125 19.1875 5.171875 
Q 19.1875 2 17.578125 0.28125 
Q 15.96875 -1.421875 13.1875 -1.421875 
Q 10.6875 -1.421875 9.046875 0.109375 
Q 7.421875 1.65625 7.421875 5.171875 
z
M 7.421875 48.296875 
Q 7.421875 54.890625 13.1875 54.890625 
Q 19.1875 54.890625 19.1875 48.296875 
Q 19.1875 45.125 17.578125 43.40625 
Q 15.96875 41.703125 13.1875 41.703125 
Q 10.6875 41.703125 9.046875 43.234375 
Q 7.421875 44.78125 7.421875 48.296875 
z
" id="OpenSans-58"/>
     <path d="M 32.71875 47.21875 
L 19.09375 47.21875 
L 19.09375 0 
L 10.984375 0 
L 10.984375 47.21875 
L 1.421875 47.21875 
L 1.421875 50.875 
L 10.984375 53.8125 
L 10.984375 56.78125 
Q 10.984375 76.515625 28.21875 76.515625 
Q 32.46875 76.515625 38.1875 74.8125 
L 36.078125 68.3125 
Q 31.390625 69.828125 28.078125 69.828125 
Q 23.484375 69.828125 21.28125 66.765625 
Q 19.09375 63.71875 19.09375 56.984375 
L 19.09375 53.515625 
L 32.71875 53.515625 
z
" id="OpenSans-102"/>
     <path d="M 5.71875 30.515625 
Q 5.71875 51.5625 13.890625 61.984375 
Q 22.078125 72.40625 38.09375 72.40625 
Q 43.609375 72.40625 46.78125 71.484375 
L 46.78125 64.5 
Q 43.015625 65.71875 38.1875 65.71875 
Q 26.703125 65.71875 20.640625 58.5625 
Q 14.59375 51.421875 14.015625 36.078125 
L 14.59375 36.078125 
Q 19.96875 44.484375 31.59375 44.484375 
Q 41.21875 44.484375 46.75 38.671875 
Q 52.296875 32.859375 52.296875 22.90625 
Q 52.296875 11.765625 46.21875 5.390625 
Q 40.140625 -0.984375 29.78125 -0.984375 
Q 18.703125 -0.984375 12.203125 7.34375 
Q 5.71875 15.671875 5.71875 30.515625 
z
M 29.6875 5.90625 
Q 36.625 5.90625 40.453125 10.28125 
Q 44.28125 14.65625 44.28125 22.90625 
Q 44.28125 29.984375 40.71875 34.03125 
Q 37.15625 38.09375 30.078125 38.09375 
Q 25.6875 38.09375 22.015625 36.28125 
Q 18.359375 34.46875 16.1875 31.296875 
Q 14.015625 28.125 14.015625 24.703125 
Q 14.015625 19.671875 15.96875 15.328125 
Q 17.921875 10.984375 21.5 8.4375 
Q 25.09375 5.90625 29.6875 5.90625 
z
" id="OpenSans-54"/>
    </defs>
    <g transform="translate(195.753125 16.318125)scale(0.12 -0.12)">
     <use xlink:href="#OpenSans-73"/>
     <use x="27.880859" xlink:href="#OpenSans-110"/>
     <use x="89.257812" xlink:href="#OpenSans-115"/>
     <use x="136.962891" xlink:href="#OpenSans-116"/>
     <use x="172.265625" xlink:href="#OpenSans-97"/>
     <use x="227.880859" xlink:href="#OpenSans-110"/>
     <use x="289.257812" xlink:href="#OpenSans-99"/>
     <use x="336.865234" xlink:href="#OpenSans-101"/>
     <use x="392.96875" xlink:href="#OpenSans-58"/>
     <use x="419.580078" xlink:href="#OpenSans-32"/>
     <use x="445.556641" xlink:href="#OpenSans-102"/>
     <use x="479.443359" xlink:href="#OpenSans-114"/>
     <use x="520.263672" xlink:href="#OpenSans-105"/>
     <use x="545.556641" xlink:href="#OpenSans-50"/>
     <use x="602.734375" xlink:href="#OpenSans-54"/>
    </g>
   </g>
   <g id="legend_1">
    <g id="patch_7">
     <path d="M 63.7875 75.322812 
L 129.535937 75.322812 
Q 131.535937 75.322812 131.535937 73.322812 
L 131.535937 29.318125 
Q 131.535937 27.318125 129.535937 27.318125 
L 63.7875 27.318125 
Q 61.7875 27.318125 61.7875 29.318125 
L 61.7875 73.322812 
Q 61.7875 75.322812 63.7875 75.322812 
z
" style="fill:#ffffff;opacity:0.8;stroke:#cccccc;stroke-linejoin:miter;"/>
    </g>
    <g id="line2d_33">
     <path d="M 65.7875 35.416562 
L 85.7875 35.416562 
" style="fill:none;stroke:#1b9e77;stroke-linecap:square;stroke-width:2;"/>
    </g>
    <g id="line2d_34">
     <g>
      <use style="fill:#1b9e77;stroke:#1b9e77;stroke-linejoin:miter;" x="75.7875" xlink:href="#mdb5b16ce30" y="35.416562"/>
     </g>
    </g>
    <g id="text_17">
     <!-- Greedy -->
     <defs>
      <path d="M 41.21875 37.40625 
L 65.484375 37.40625 
L 65.484375 2.6875 
Q 59.8125 0.875 53.953125 -0.046875 
Q 48.09375 -0.984375 40.375 -0.984375 
Q 24.171875 -0.984375 15.140625 8.65625 
Q 6.109375 18.3125 6.109375 35.6875 
Q 6.109375 46.828125 10.578125 55.203125 
Q 15.046875 63.578125 23.4375 67.984375 
Q 31.84375 72.40625 43.109375 72.40625 
Q 54.546875 72.40625 64.40625 68.21875 
L 61.1875 60.890625 
Q 51.515625 64.984375 42.578125 64.984375 
Q 29.546875 64.984375 22.21875 57.21875 
Q 14.890625 49.46875 14.890625 35.6875 
Q 14.890625 21.234375 21.9375 13.765625 
Q 29 6.296875 42.671875 6.296875 
Q 50.09375 6.296875 57.171875 8.015625 
L 57.171875 29.984375 
L 41.21875 29.984375 
z
" id="OpenSans-71"/>
      <path d="M 45.015625 7.171875 
L 44.578125 7.171875 
Q 38.96875 -0.984375 27.78125 -0.984375 
Q 17.28125 -0.984375 11.4375 6.1875 
Q 5.609375 13.375 5.609375 26.609375 
Q 5.609375 39.84375 11.46875 47.171875 
Q 17.328125 54.5 27.78125 54.5 
Q 38.671875 54.5 44.484375 46.578125 
L 45.125 46.578125 
L 44.78125 50.4375 
L 44.578125 54.203125 
L 44.578125 75.984375 
L 52.6875 75.984375 
L 52.6875 0 
L 46.09375 0 
z
M 28.8125 5.8125 
Q 37.109375 5.8125 40.84375 10.328125 
Q 44.578125 14.84375 44.578125 24.90625 
L 44.578125 26.609375 
Q 44.578125 37.984375 40.796875 42.84375 
Q 37.015625 47.703125 28.71875 47.703125 
Q 21.578125 47.703125 17.796875 42.15625 
Q 14.015625 36.625 14.015625 26.515625 
Q 14.015625 16.265625 17.765625 11.03125 
Q 21.53125 5.8125 28.8125 5.8125 
z
" id="OpenSans-100"/>
      <path d="M 0.09375 53.515625 
L 8.796875 53.515625 
L 20.515625 23 
Q 24.359375 12.546875 25.296875 7.90625 
L 25.6875 7.90625 
Q 26.3125 10.40625 28.34375 16.4375 
Q 30.375 22.46875 41.609375 53.515625 
L 50.296875 53.515625 
L 27.296875 -7.421875 
Q 23.875 -16.453125 19.3125 -20.234375 
Q 14.75 -24.03125 8.109375 -24.03125 
Q 4.390625 -24.03125 0.78125 -23.1875 
L 0.78125 -16.703125 
Q 3.46875 -17.28125 6.78125 -17.28125 
Q 15.140625 -17.28125 18.703125 -7.90625 
L 21.6875 -0.296875 
z
" id="OpenSans-121"/>
     </defs>
     <g transform="translate(93.7875 38.916562)scale(0.1 -0.1)">
      <use xlink:href="#OpenSans-71"/>
      <use x="72.802734" xlink:href="#OpenSans-114"/>
      <use x="113.591797" xlink:href="#OpenSans-101"/>
      <use x="169.695312" xlink:href="#OpenSans-101"/>
      <use x="225.798828" xlink:href="#OpenSans-100"/>
      <use x="287.078125" xlink:href="#OpenSans-121"/>
     </g>
    </g>
    <g id="line2d_35">
     <path d="M 65.7875 50.418125 
L 85.7875 50.418125 
" style="fill:none;stroke:#d95f02;stroke-linecap:square;stroke-width:2;"/>
    </g>
    <g id="line2d_36">
     <g>
      <use style="fill:#d95f02;stroke:#d95f02;stroke-linejoin:miter;" x="75.7875" xlink:href="#ma0abc787eb" y="50.418125"/>
     </g>
    </g>
    <g id="text_18">
     <!-- 2-Opt -->
     <defs>
      <path d="M 4.109375 23.09375 
L 4.109375 30.515625 
L 28.078125 30.515625 
L 28.078125 23.09375 
z
" id="OpenSans-45"/>
      <path d="M 71.78125 35.796875 
Q 71.78125 18.65625 63.109375 8.828125 
Q 54.4375 -0.984375 39.015625 -0.984375 
Q 23.25 -0.984375 14.671875 8.65625 
Q 6.109375 18.3125 6.109375 35.890625 
Q 6.109375 53.328125 14.703125 62.921875 
Q 23.296875 72.515625 39.109375 72.515625 
Q 54.5 72.515625 63.140625 62.75 
Q 71.78125 52.984375 71.78125 35.796875 
z
M 14.890625 35.796875 
Q 14.890625 21.296875 21.0625 13.796875 
Q 27.25 6.296875 39.015625 6.296875 
Q 50.875 6.296875 56.921875 13.765625 
Q 62.984375 21.234375 62.984375 35.796875 
Q 62.984375 50.203125 56.953125 57.640625 
Q 50.921875 65.09375 39.109375 65.09375 
Q 27.25 65.09375 21.0625 57.59375 
Q 14.890625 50.09375 14.890625 35.796875 
z
" id="OpenSans-79"/>
      <path d="M 33.5 -0.984375 
Q 28.265625 -0.984375 23.9375 0.9375 
Q 19.625 2.875 16.703125 6.890625 
L 16.109375 6.890625 
Q 16.703125 2.203125 16.703125 -2 
L 16.703125 -24.03125 
L 8.59375 -24.03125 
L 8.59375 53.515625 
L 15.1875 53.515625 
L 16.3125 46.1875 
L 16.703125 46.1875 
Q 19.828125 50.59375 23.96875 52.546875 
Q 28.125 54.5 33.5 54.5 
Q 44.140625 54.5 49.921875 47.21875 
Q 55.71875 39.9375 55.71875 26.8125 
Q 55.71875 13.625 49.828125 6.3125 
Q 43.953125 -0.984375 33.5 -0.984375 
z
M 32.328125 47.609375 
Q 24.125 47.609375 20.453125 43.0625 
Q 16.796875 38.53125 16.703125 28.609375 
L 16.703125 26.8125 
Q 16.703125 15.53125 20.453125 10.671875 
Q 24.21875 5.8125 32.515625 5.8125 
Q 39.453125 5.8125 43.375 11.421875 
Q 47.3125 17.046875 47.3125 26.90625 
Q 47.3125 36.921875 43.375 42.265625 
Q 39.453125 47.609375 32.328125 47.609375 
z
" id="OpenSans-112"/>
     </defs>
     <g transform="translate(93.7875 53.918125)scale(0.1 -0.1)">
      <use xlink:href="#OpenSans-50"/>
      <use x="57.177734" xlink:href="#OpenSans-45"/>
      <use x="89.355469" xlink:href="#OpenSans-79"/>
      <use x="167.236328" xlink:href="#OpenSans-112"/>
      <use x="228.515625" xlink:href="#OpenSans-116"/>
     </g>
    </g>
    <g id="line2d_37">
     <path d="M 65.7875 65.419687 
L 85.7875 65.419687 
" style="fill:none;stroke:#7570b3;stroke-linecap:square;stroke-width:2;"/>
    </g>
    <g id="line2d_38">
     <g>
      <use style="fill:#7570b3;stroke:#7570b3;stroke-linejoin:miter;" x="75.7875" xlink:href="#m79567fa07c" y="65.419687"/>
     </g>
    </g>
    <g id="text_19">
     <!-- LKH -->
     <defs>
      <path d="M 9.8125 0 
L 9.8125 71.390625 
L 18.109375 71.390625 
L 18.109375 7.515625 
L 49.609375 7.515625 
L 49.609375 0 
z
" id="OpenSans-76"/>
      <path d="M 61.375 0 
L 51.609375 0 
L 25.59375 34.625 
L 18.109375 27.984375 
L 18.109375 0 
L 9.8125 0 
L 9.8125 71.390625 
L 18.109375 71.390625 
L 18.109375 35.984375 
L 50.484375 71.390625 
L 60.296875 71.390625 
L 31.59375 40.375 
z
" id="OpenSans-75"/>
      <path d="M 64.015625 0 
L 55.71875 0 
L 55.71875 33.59375 
L 18.109375 33.59375 
L 18.109375 0 
L 9.8125 0 
L 9.8125 71.390625 
L 18.109375 71.390625 
L 18.109375 41.015625 
L 55.71875 41.015625 
L 55.71875 71.390625 
L 64.015625 71.390625 
z
" id="OpenSans-72"/>
     </defs>
     <g transform="translate(93.7875 68.919687)scale(0.1 -0.1)">
      <use xlink:href="#OpenSans-76"/>
      <use x="51.904297" xlink:href="#OpenSans-75"/>
      <use x="113.28125" xlink:href="#OpenSans-72"/>
     </g>
    </g>
   </g>
  </g>
 </g>
 <defs>
  <clipPath id="p2a2f0fb78e">
   <rect height="266.112" width="357.12" x="56.7875" y="22.318125"/>
  </clipPath>
 </defs>
</svg>
